<svg xmlns="http://www.w3.org/2000/svg" xmlns:xlink="http://www.w3.org/1999/xlink" width="48" height="48">
  <defs id="acyl-settings">
    <linearGradient x1="0%" y1="0%" x2="0%" y2="100%" id="acyl-gradient">
      <stop offset="0%" style="stop-color:#8FA1B3;stop-opacity:1.000000"/>
    </linearGradient>
    <g id="acyl-filter">
  </g>
    <g id="acyl-drawing">
      <path d="M 3.84375 7.125 C 2.823171 7.125 2 7.948173 2 8.96875 L 2 39.03125 C 2 40.05183 2.823171 40.875 3.84375 40.875 L 44.15625 40.875 C 45.176828 40.875 46 40.05183 46 39.03125 L 46 10.78125 C 46 9.7606715 45.176828 8.9375 44.15625 8.9375 L 15.6875 8.9375 L 14.0625 7.125 L 3.84375 7.125 z M 23.96875 14.46875 C 25.01323 14.468125 26.21713 20.105325 27.0625 20.71875 C 27.90787 21.332174 33.676642 20.694329 34 21.6875 C 34.323357 22.680667 29.290917 25.568946 28.96875 26.5625 C 28.646583 27.556054 31.000885 32.823063 30.15625 33.4375 C 29.311614 34.051936 25.075731 30.186875 24.03125 30.1875 C 22.98677 30.188125 18.68912 34.050924 17.84375 33.4375 C 16.99838 32.824075 19.354607 27.586917 19.03125 26.59375 C 18.707893 25.600583 13.677833 22.712303 14 21.71875 C 14.322167 20.725196 20.092864 21.333186 20.9375 20.71875 C 21.782135 20.104313 22.924269 14.469375 23.96875 14.46875 z " id="path-main"/>
    </g>
  </defs>
  <g id="acyl-visual">
    <use id="visible1" transform="translate(24,24) scale(1.00) translate(-24,-24)" style="fill:url(#acyl-gradient)" xlink:href="#acyl-drawing"/>
  </g>
</svg>
