<svg xmlns="http://www.w3.org/2000/svg" xmlns:xlink="http://www.w3.org/1999/xlink" width="48" height="48">
  <defs id="acyl-settings">
    <linearGradient x1="0%" y1="0%" x2="0%" y2="100%" id="acyl-gradient">
      <stop offset="0%" style="stop-color:#8FA1B3;stop-opacity:1.000000"/>
    </linearGradient>
    <g id="acyl-filter">
  </g>
    <g id="acyl-drawing">
      <path d="M 5.127217,8.0027229 C 3.393875,8.0027229 2,9.315982 2,10.949076 l 0.130016,26.104573 c 0,1.633093 1.393875,2.946347 3.127215,2.946351 l 37.615554,0 C 44.606127,40 46.000002,38.686742 46,37.053649 l 0,-20.817898 c 0,-1.633093 -1.393877,-2.952802 -3.127215,-2.952802 l -16.690232,0 -1.238228,-2.333873 C 24.227456,9.054328 23.159429,7.9373072 21.817109,8.0027229 l -16.689892,0 z" id="path-main"/>
    </g>
  </defs>
  <g id="acyl-visual">
    <use id="visible1" transform="translate(24,24) scale(1.00) translate(-24,-24)" style="fill:url(#acyl-gradient)" xlink:href="#acyl-drawing"/>
  </g>
</svg>
