<svg xmlns="http://www.w3.org/2000/svg" xmlns:xlink="http://www.w3.org/1999/xlink" width="48" height="48">
  <defs id="acyl-settings">
    <linearGradient x1="0%" y1="0%" x2="0%" y2="100%" id="acyl-gradient">
      <stop offset="0%" style="stop-color:#8FA1B3;stop-opacity:1.000000"/>
    </linearGradient>
    <g id="acyl-filter">
  </g>
    <g id="acyl-drawing">
      <path d="M 6.625 10 C 4.4437601 10 2.71875 11.855151 2.71875 14.0625 L 2.71875 26.90625 C 2.71875 26.980768 2.7461169 27.051342 2.75 27.125 C 2.7430289 27.304541 2.71875 27.475029 2.71875 27.65625 L 2.71875 40.53125 C 2.7187776 40.807381 2.9426191 41.031222 3.21875 41.03125 L 23.15625 41.03125 L 23.15625 42.8125 C 22.555057 43.078908 22.052813 43.572739 21.8125 44.1875 L 2.65625 44.1875 C 2.6250173 44.186033 2.5937328 44.186034 2.5625 44.1875 C 2.0102154 44.213387 1.5991116 44.697715 1.625 45.25 C 1.6508883 45.802284 2.1039653 46.213388 2.65625 46.1875 L 21.90625 46.1875 C 22.312499 47.019015 23.169019 47.593749 24.15625 47.59375 C 25.143482 47.593749 26.000002 47.019016 26.40625 46.1875 L 45.625 46.1875 C 45.985635 46.192599 46.318193 45.998998 46.5 45.6875 C 46.681805 45.376001 46.681806 44.998997 46.5 44.6875 C 46.318192 44.376002 45.985636 44.1824 45.625 44.1875 L 26.5 44.1875 C 26.259689 43.572738 25.757444 43.078909 25.15625 42.8125 L 25.15625 41.03125 L 32.78125 41.03125 C 40.123609 41.03125 46.249999 35.002324 46.25 27.65625 L 46.25 14.8125 C 46.249972 14.536369 46.026131 14.312528 45.75 14.3125 L 43.375 14.3125 L 43.375 14.0625 C 43.375 11.855151 41.64999 10 39.46875 10 L 6.625 10 z M 6.625 12 L 39.46875 12 C 40.527421 12 41.375 12.881546 41.375 14.0625 L 41.375 14.3125 L 15.8125 14.3125 C 11.068956 14.3125 7.0124466 16.838243 4.71875 20.59375 L 4.71875 14.0625 C 4.71875 12.881546 5.5663292 12 6.625 12 z M 19.6875 17.96875 C 20.104059 17.963557 20.556419 17.974778 21.03125 18.03125 C 21.980913 18.144195 23.01802 18.426566 24.15625 18.90625 C 24.382226 19.001483 24.565293 19.03748 24.78125 19.125 C 26.519078 19.829288 27.99446 20.33858 29.09375 20.5 C 30.308338 20.678352 31.068292 20.492248 31.71875 20.0625 C 32.061416 19.791635 32.513352 19.746664 32.90625 19.9375 C 33.29915 20.128338 33.563553 20.531958 33.5625 20.96875 L 33.625 27.5625 C 33.660185 27.723033 33.660185 27.901968 33.625 28.0625 L 33.71875 34 C 33.738799 34.122107 33.738797 34.252893 33.71875 34.375 C 33.718853 34.383779 33.718851 34.397469 33.71875 34.40625 C 33.71127 34.437337 33.69757 34.469653 33.6875 34.5 C 33.668187 34.57268 33.626989 34.62004 33.59375 34.6875 C 33.589474 34.696336 33.598252 34.710027 33.59375 34.71875 C 33.581608 34.745592 33.576687 34.786679 33.5625 34.8125 C 33.558147 34.816925 33.535677 34.808145 33.53125 34.8125 C 33.514797 34.839562 33.487402 34.880653 33.46875 34.90625 C 33.45201 34.928843 33.424618 34.947457 33.40625 34.96875 C 33.397615 34.977673 33.383922 34.991364 33.375 35 C 33.353708 35.018367 33.335093 35.045759 33.3125 35.0625 C 33.204975 35.159961 33.073575 35.230812 32.9375 35.28125 C 32.925782 35.288174 32.918013 35.305678 32.90625 35.3125 C 31.79354 35.957869 30.498135 36.159022 29.09375 35.96875 C 27.55935 35.760861 25.837334 35.174081 23.71875 34.28125 C 20.306521 32.843237 18.049645 33.69025 17.625 33.875 C 17.620647 33.879425 17.598177 33.901896 17.59375 33.90625 C 17.299961 34.115039 16.936449 34.174137 16.59375 34.0625 C 16.251051 33.950862 15.989439 33.654274 15.875 33.3125 C 15.870496 33.303776 15.848027 33.321336 15.84375 33.3125 C 15.824765 33.247944 15.819805 33.160641 15.8125 33.09375 C 15.806041 33.054495 15.783565 33.008466 15.78125 32.96875 L 15.78125 32.875 L 15.625 19.90625 C 15.621923 19.858008 15.621923 19.798243 15.625 19.75 C 15.623755 19.719282 15.623755 19.686968 15.625 19.65625 C 15.633819 19.470363 15.686288 19.316295 15.78125 19.15625 C 15.785604 19.151825 15.808074 19.129355 15.8125 19.125 C 15.870325 19.031874 15.949322 18.947831 16.03125 18.875 C 16.173257 18.746484 16.344915 18.669294 16.53125 18.625 C 16.845762 18.478139 17.47188 18.211177 18.53125 18.0625 C 18.879428 18.013636 19.270942 17.973944 19.6875 17.96875 z M 19.71875 20.25 C 19.402326 20.258492 19.103315 20.276071 18.84375 20.3125 C 18.420512 20.3719 18.148007 20.45522 17.90625 20.53125 L 17.96875 25 C 19.199315 24.712676 21.012741 24.544606 23.28125 25.21875 L 23.25 20.96875 C 22.329764 20.587033 21.477305 20.36754 20.75 20.28125 C 20.378702 20.237199 20.035175 20.241509 19.71875 20.25 z M 25.5 21.84375 L 25.5625 26.03125 C 27.075123 26.632896 28.360212 27.125462 29.3125 27.28125 C 30.212574 27.428497 30.807251 27.320105 31.34375 27.09375 L 31.28125 22.65625 C 30.485902 22.831432 29.642302 22.881027 28.75 22.75 C 27.768403 22.605862 26.66006 22.257864 25.5 21.84375 z M 19.96875 26.96875 C 19.664354 26.967681 19.375972 26.99855 19.125 27.03125 C 18.63217 27.095463 18.279636 27.185217 18 27.28125 L 18.0625 31.46875 C 19.304285 31.217604 21.126102 31.077234 23.375 31.75 L 23.3125 27.65625 C 22.013538 27.156409 20.88194 26.971959 19.96875 26.96875 z M 25.59375 28.5 L 25.65625 32.5625 C 27.166533 33.154361 28.433275 33.591161 29.375 33.71875 C 30.272318 33.840322 30.885142 33.717533 31.4375 33.46875 L 31.375 29.46875 C 30.611449 29.625213 29.810922 29.637774 28.96875 29.5 C 27.958071 29.33466 26.815761 28.959985 25.59375 28.5 z " id="path-main"/>
    </g>
  </defs>
  <g id="acyl-visual">
    <use id="visible1" transform="translate(24,24) scale(1.00) translate(-24,-24)" style="fill:url(#acyl-gradient)" xlink:href="#acyl-drawing"/>
  </g>
</svg>
