<svg xmlns="http://www.w3.org/2000/svg" xmlns:xlink="http://www.w3.org/1999/xlink" width="48" height="48">
  <defs id="acyl-settings">
    <linearGradient x1="0%" y1="0%" x2="0%" y2="100%" id="acyl-gradient">
      <stop offset="0%" style="stop-color:#8FA1B3;stop-opacity:1.000000"/>
    </linearGradient>
    <g id="acyl-filter">
  </g>
    <g id="acyl-drawing">
      <path d="M 5.125 8 C 3.391658 8 2 9.304406 2 10.9375 L 2.125 37.0625 C 2.125 38.695593 3.51666 39.999996 5.25 40 L 42.875 40 C 44.608342 40 46.000002 38.695593 46 37.0625 L 46 16.25 C 46 14.616907 44.608338 13.28125 42.875 13.28125 L 26.1875 13.28125 L 24.9375 10.9375 C 24.220631 9.042752 23.15482 7.9345843 21.8125 8 L 5.125 8 z M 24.21875 16.4375 C 25.001074 16.439 25.770901 16.545466 26.5625 16.75 C 26.58238 16.7552 26.63639 16.7447 26.65625 16.75 C 31.741349 18.098313 34.754561 23.321155 33.40625 28.40625 C 32.057944 33.491349 26.8351 36.535811 21.75 35.1875 C 20.700982 34.909353 19.760142 34.447594 18.90625 33.875 C 18.88024 33.96223 18.84152 34.00482 18.8125 34.09375 C 18.686329 34.480492 18.537815 34.909227 18.28125 35.25 C 18.024687 35.590772 17.674945 35.876526 17.1875 35.96875 C 16.225559 36.150739 15.433067 35.560183 14.78125 35.03125 C 14.129435 34.502318 13.534238 34.029723 13.03125 33.96875 C 12.418544 33.89448 12.151074 34.022874 11.90625 34.1875 C 11.661426 34.352125 11.440331 34.592663 11.03125 34.75 L 10.71875 34.03125 C 10.85305 33.97959 11.076247 33.77416 11.4375 33.53125 C 11.798753 33.288339 12.35836 33.094574 13.125 33.1875 C 14.001358 33.293729 14.626963 33.90067 15.25 34.40625 C 15.873037 34.911829 16.446652 35.329351 17.03125 35.21875 C 17.317077 35.16468 17.486991 34.974813 17.65625 34.75 C 17.825507 34.525188 17.94833 34.224955 18.0625 33.875 C 18.11621 33.710358 18.170325 33.544898 18.21875 33.375 C 15.383053 31.084568 13.974644 27.249227 14.96875 23.5 C 16.101943 19.226211 19.994202 16.429487 24.21875 16.4375 z M 21.9375 17.9375 C 21.678136 17.954 21.411156 18.026384 21.15625 18.125 C 19.817022 18.643101 19.169398 20.192023 19.6875 21.53125 C 20.205601 22.870478 21.692022 23.518101 23.03125 23 C 24.37048 22.481898 25.049354 20.96423 24.53125 19.625 C 24.213508 18.803676 23.482432 18.228437 22.6875 18.03125 C 22.440131 17.97233 22.196863 17.921 21.9375 17.9375 z M 28.71875 19.6875 C 28.133553 19.6827 27.520031 19.883325 27.03125 20.28125 C 25.917668 21.187841 25.749663 22.85517 26.65625 23.96875 C 27.56284 25.082326 29.198923 25.219091 30.3125 24.3125 C 31.426082 23.40591 31.625341 21.76983 30.71875 20.65625 C 30.346907 20.199506 29.812839 19.910943 29.28125 19.78125 C 29.091333 19.73634 28.913817 19.68904 28.71875 19.6875 z M 18.28125 23.6875 C 16.847464 23.7664 15.733602 25.00372 15.8125 26.4375 C 15.8914 27.871286 17.128718 28.985148 18.5625 28.90625 C 19.996286 28.82735 21.078898 27.558786 21 26.125 C 20.93651 24.971254 20.153776 24.062286 19.09375 23.78125 C 19.07766 23.77695 19.04744 23.75395 19.03125 23.75 C 18.788404 23.69063 18.543785 23.67305 18.28125 23.6875 z M 24.21875 24.9375 C 23.752923 24.9314 23.312296 25.18558 23.1875 25.65625 C 23.040289 26.211445 23.3823 26.821539 23.9375 26.96875 C 24.492696 27.11596 25.071541 26.773945 25.21875 26.21875 C 25.36596 25.663551 24.992698 25.084713 24.4375 24.9375 C 24.42232 24.9334 24.42144 24.9408 24.40625 24.9375 C 24.33895 24.92325 24.2853 24.938375 24.21875 24.9375 z M 28.875 26.5 C 28.083992 26.55441 27.306499 26.970834 26.84375 27.6875 C 26.064823 28.893833 26.418666 30.502325 27.625 31.28125 C 28.83133 32.060176 30.471071 31.706337 31.25 30.5 C 32.02893 29.293667 31.643835 27.685178 30.4375 26.90625 C 30.201891 26.754116 29.976034 26.661979 29.71875 26.59375 C 29.70219 26.58935 29.67285 26.56656 29.65625 26.5625 C 29.394611 26.49863 29.13867 26.48186 28.875 26.5 z M 22.5625 28.96875 C 21.470207 29.03184 20.451775 29.760439 20.15625 30.875 C 19.788223 32.262993 20.674505 33.694471 22.0625 34.0625 C 23.450494 34.430526 24.850729 33.60674 25.21875 32.21875 C 25.586777 30.830755 24.73174 29.399274 23.34375 29.03125 C 23.33288 29.02835 23.32337 29.03395 23.3125 29.03125 C 23.05516 28.96821 22.814568 28.95418 22.5625 28.96875 z " id="path-main"/>
    </g>
  </defs>
  <g id="acyl-visual">
    <use id="visible1" transform="translate(24,24) scale(1.00) translate(-24,-24)" style="fill:url(#acyl-gradient)" xlink:href="#acyl-drawing"/>
  </g>
</svg>
