<svg xmlns="http://www.w3.org/2000/svg" xmlns:xlink="http://www.w3.org/1999/xlink" width="48" height="48">
  <defs id="acyl-settings">
    <linearGradient x1="0%" y1="0%" x2="0%" y2="100%" id="acyl-gradient">
      <stop offset="0%" style="stop-color:#8FA1B3;stop-opacity:1.000000"/>
    </linearGradient>
    <g id="acyl-filter">
  </g>
    <g id="acyl-drawing">
      <path d="M 5.125 8 C 3.391658 8 2 9.304406 2 10.9375 L 2.125 37.0625 C 2.125 38.695593 3.51666 39.999996 5.25 40 L 23.0625 40 L 23.0625 40.71875 C 22.47483 40.979166 21.984907 41.461568 21.75 42.0625 L 3 42.0625 C 2.96947 42.061 2.93678 42.061 2.90625 42.0625 C 2.366389 42.08781 1.974694 42.553888 2 43.09375 C 2.02531 43.633612 2.460139 44.056556 3 44.03125 L 21.8125 44.03125 C 22.20961 44.844062 23.066226 45.406249 24.03125 45.40625 C 24.996275 45.40625 25.82164 44.844062 26.21875 44.03125 L 45 44.03125 C 45.352524 44.03625 45.697282 43.835741 45.875 43.53125 C 46.052716 43.226759 46.052716 42.86699 45.875 42.5625 C 45.697282 42.25801 45.352524 42.057515 45 42.0625 L 26.3125 42.0625 C 26.077594 41.461568 25.587671 40.979166 25 40.71875 L 25 40 L 42.875 40 C 44.608342 40 46.000002 38.695593 46 37.0625 L 46 16.25 C 46 14.616907 44.608338 13.28125 42.875 13.28125 L 26.1875 13.28125 L 24.9375 10.9375 C 24.220631 9.042752 23.15482 7.9345843 21.8125 8 L 5.125 8 z M 15.3125 16.34375 C 15.312501 16.34375 19.824694 20.063196 23.96875 16.59375 C 27.100888 17.991165 28.917244 18.943212 32.53125 16.4375 C 32.77218 23.280018 32.875 27.862892 32.875 29.46875 C 32.874999 31.122774 32.030986 32.299491 28.84375 34.15625 C 25.440625 36.138774 24.59255 36.430824 24.0625 37.25 C 23.484258 36.430824 20.001658 34.545797 18.21875 33.4375 C 16.435834 32.329206 15.21875 30.579668 15.21875 29.375 C 15.218751 28.170331 15.3125 16.440121 15.3125 16.34375 z " id="path-main"/>
    </g>
  </defs>
  <g id="acyl-visual">
    <use id="visible1" transform="translate(24,24) scale(1.00) translate(-24,-24)" style="fill:url(#acyl-gradient)" xlink:href="#acyl-drawing"/>
  </g>
</svg>
