<svg xmlns="http://www.w3.org/2000/svg" xmlns:xlink="http://www.w3.org/1999/xlink" width="48" height="48">
  <defs id="acyl-settings">
    <linearGradient x1="0%" y1="0%" x2="0%" y2="100%" id="acyl-gradient">
      <stop offset="0%" style="stop-color:#8FA1B3;stop-opacity:1.000000"/>
    </linearGradient>
    <g id="acyl-filter">
  </g>
    <g id="acyl-drawing">
      <path d="M 21.875 3.375 L 21.875 3.40625 C 13.280612 3.7713672 6.3788283 11.616223 6.34375 21.28125 L 6.40625 21.28125 L 6.40625 35.46875 C 6.3682156 35.645706 6.34375 35.812339 6.34375 36 C 6.34375 37.50129 7.6418507 38.71875 9.21875 38.71875 C 9.275447 38.71875 9.3191525 38.6906 9.375 38.6875 C 10.07403 42.197992 11.96087 44.756162 14.21875 45 L 14.21875 26.375 C 11.834558 26.632478 9.8756914 29.468056 9.28125 33.28125 C 9.262734 33.280913 9.237354 33.28125 9.21875 33.28125 C 9.164625 33.28125 9.115882 33.30967 9.0625 33.3125 L 9.0625 21.03125 L 9 21.03125 C 9.0158459 20.956453 9.0459349 20.88691 9.0625 20.8125 C 9.0323536 20.460868 9 20.10924 9 19.75 C 9 12.214256 15.666757 6.09375 23.90625 6.09375 C 32.145742 6.09375 38.84375 12.214256 38.84375 19.75 C 38.84375 19.971763 38.822808 20.187775 38.8125 20.40625 C 38.863142 20.615051 38.923845 20.819289 38.96875 21.03125 L 38.90625 21.03125 L 38.90625 33.3125 C 38.85287 33.3097 38.804128 33.28125 38.75 33.28125 C 38.73139 33.28125 38.70602 33.280913 38.6875 33.28125 C 38.093059 29.468056 36.134191 26.632478 33.75 26.375 L 33.75 45 C 36.00788 44.756162 37.89472 42.197992 38.59375 38.6875 C 38.6496 38.6906 38.6933 38.71875 38.75 38.71875 C 40.326899 38.71875 41.625 37.50129 41.625 36 C 41.625 35.812339 41.60054 35.645706 41.5625 35.46875 L 41.5625 21.28125 L 41.625 21.28125 C 41.58983 11.589244 34.659196 3.7303665 26.03125 3.40625 L 26.03125 3.375 L 25.5 3.375 L 25.4375 3.375 L 22.53125 3.375 L 22.46875 3.375 L 21.875 3.375 z M 25.6875 21.78125 L 24.3125 34 L 23.3125 27.5 L 22.65625 32.3125 L 20.84375 23.21875 L 19.40625 32.8125 L 18.375 29.4375 L 17.25 35.8125 L 18.25 41.25 L 19.40625 37.5 L 20.28125 45.03125 L 21.28125 35.28125 L 22.4375 42.28125 L 23.3125 36.3125 L 24.5625 45.03125 L 25.34375 36.46875 L 26.5625 43.71875 L 27.25 39.3125 L 28.15625 43.1875 L 28.84375 37.5 L 29.75 41.25 L 30.53125 36.1875 L 29.75 30.75 L 29.375 34.125 L 27.9375 25.5625 L 26.90625 34.90625 L 25.6875 21.78125 z M 15.03125 26.34375 L 15.03125 45.15625 L 16.8125 45.15625 L 16.8125 26.34375 L 15.03125 26.34375 z M 31.15625 26.34375 L 31.15625 45.15625 L 32.9375 45.15625 L 32.9375 26.34375 L 31.15625 26.34375 z " id="path-main"/>
    </g>
  </defs>
  <g id="acyl-visual">
    <use id="visible1" transform="translate(24,24) scale(1.00) translate(-24,-24)" style="fill:url(#acyl-gradient)" xlink:href="#acyl-drawing"/>
  </g>
</svg>
