<svg xmlns="http://www.w3.org/2000/svg" xmlns:xlink="http://www.w3.org/1999/xlink" width="48" height="48">
  <defs id="acyl-settings">
    <linearGradient x1="0%" y1="0%" x2="0%" y2="100%" id="acyl-gradient">
      <stop offset="0%" style="stop-color:#8FA1B3;stop-opacity:1.000000"/>
    </linearGradient>
    <g id="acyl-filter">
  </g>
    <g id="acyl-drawing">
      <path id="path-main" d="M 10.103723,2 C 5.6112484,2 2,5.6112486 2,10.103723 L 2,37.896277 C 2,42.388751 5.6112483,46 10.103723,46 l 27.792554,0 C 42.388751,46 46,42.38875 46,37.896277 L 46,10.103723 C 46,5.6112484 42.388753,2 37.896277,2 L 10.103723,2 z m 15.973405,4.7101064 c 3.111859,3.44e-5 5.763434,0.384079 7.957446,1.1702127 2.216344,0.7862029 4.017303,1.9675869 5.382979,3.5398939 0.850692,0.958769 1.455594,2.150236 1.81383,3.569149 0.358168,1.399788 0.526561,3.500468 0.526596,6.319149 l 0,18.401595 -6.202128,0 0,-4.768617 c -1.320901,1.917489 -2.987799,3.321631 -5.00266,4.242022 -1.992519,0.901218 -4.418978,1.345744 -7.284574,1.345744 -3.828297,0 -6.902641,-0.909216 -9.18617,-2.75 -2.28354,-1.85996 -3.422879,-4.353775 -3.422873,-7.460106 -5e-6,-3.585686 1.414304,-6.302255 4.212766,-8.162234 2.820825,-1.85994 6.934795,-2.779236 12.375,-2.779255 l 8.308511,0 0,-0.848405 c -0.02242,-2.56941 -0.781972,-4.437249 -2.281915,-5.587766 -1.499995,-1.169635 -3.905849,-1.75529 -7.196808,-1.755319 -2.104457,2.9e-5 -4.228467,0.2722 -6.37766,0.789894 -2.149223,0.517752 -4.252631,1.284847 -6.289894,2.281915 l 0,-5.295213 C 15.693097,8.214979 17.880703,7.6595706 19.962766,7.2952128 22.06718,6.91175 24.107,6.7101408 26.077128,6.7101064 z M 27.715426,23.50266 c -3.604423,1.5e-5 -6.326463,0.545347 -8.162235,1.638297 -1.813406,1.073808 -2.720757,2.679558 -2.720744,4.827128 -1.4e-5,1.93667 0.682217,3.460787 2.047872,4.534575 1.365631,1.073796 3.257652,1.609046 5.675532,1.609042 3.402897,5e-6 6.097467,-0.999934 8.045213,-3.013298 1.947694,-2.032527 2.932363,-4.858995 2.954787,-8.425532 l 0,-1.170212 -5.792553,0 -2.047872,0 z"/>
    </g>
  </defs>
  <g id="acyl-visual">
    <use id="visible1" transform="translate(24,24) scale(1.00) translate(-24,-24)" style="fill:url(#acyl-gradient)" xlink:href="#acyl-drawing"/>
  </g>
</svg>
