<svg xmlns="http://www.w3.org/2000/svg" xmlns:xlink="http://www.w3.org/1999/xlink" width="48" height="48">
  <defs id="acyl-settings">
    <linearGradient x1="0%" y1="0%" x2="0%" y2="100%" id="acyl-gradient">
      <stop offset="0%" style="stop-color:#8FA1B3;stop-opacity:1.000000"/>
    </linearGradient>
    <g id="acyl-filter">
  </g>
    <g id="acyl-drawing">
      <path d="M 2,2 2,46 46,46 46,2 2,2 z m 26.411458,2.921875 2.921875,0 0,2.9505208 -2.921875,0 0,-2.9505208 z m 5.84375,0 2.950521,0 0,2.9505208 -2.950521,0 0,-2.9505208 z m 5.872396,0 2.950521,0 0,2.9505208 -2.950521,0 0,-2.9505208 z m -5.872396,5.872396 2.950521,0 0,2.950521 -2.950521,0 0,-2.950521 z m 5.872396,0 2.950521,0 0,2.950521 -2.950521,0 0,-2.950521 z M 2.9166667,17.583333 c 4.1340061,0 8.2696393,0 12.4036463,0 0,1.708906 0,3.418698 0,5.127604 -0.828927,0 -1.663262,0 -2.492188,0 0,0.859967 0,1.718159 0,2.578125 0.828926,0 1.663261,0 2.492188,0 0,1.708907 0,3.418698 0,5.127605 -4.134007,0 -8.2696402,-1e-6 -12.4036463,0 0,-4.277778 -10e-8,-8.555557 0,-12.833334 z m 9.9114583,7.705729 c -2.476154,0 -4.9431181,0 -7.4192708,0 0,0.859966 -1e-7,1.718161 0,2.578125 2.4761528,0 4.9431178,0 7.4192708,0 0,-0.859964 0,-1.71816 0,-2.578125 z m 0,-2.578125 c 0,-0.859965 0,-1.71816 0,-2.578125 -2.476154,0 -4.9431181,0 -7.4192708,0 0,0.859966 -1e-7,1.718159 0,2.578125 2.4761528,0 4.9431178,0 7.4192708,0 z M 17.8125,17.583333 c 4.123378,0 8.222975,0 12.346354,0 0,4.277777 0,8.555556 0,12.833334 -0.8183,0 -1.616596,-1e-6 -2.434896,0 0,-3.428838 0,-6.855018 0,-10.283855 -0.828926,0 -1.66326,0 -2.492187,0 0,3.428838 1e-6,6.855016 0,10.283855 -0.828927,0 -1.663261,-1e-6 -2.492188,0 0,-3.428838 -1e-6,-6.855018 0,-10.283855 -0.828927,0 -1.663259,0 -2.492187,0 0,3.428838 1e-6,6.855016 0,10.283855 -0.8183,0 -1.616598,-1e-6 -2.434896,0 0,-4.277778 -1e-6,-8.555557 0,-12.833334 z m 14.867187,0 c 4.134006,0 8.26964,0 12.403646,0 0,2.568872 -1e-6,5.136856 0,7.705729 -3.305079,0 -6.606378,0 -9.911458,0 0,1.708907 2e-6,3.418698 0,5.127605 -0.828927,0 -1.663263,-1e-6 -2.492188,0 0,-4.277778 -1e-6,-8.555557 0,-12.833334 z m 2.492188,2.549479 c 0,0.859966 2e-6,1.718159 0,2.578125 2.476152,0 4.943116,0 7.419271,0 0,-0.859965 -2e-6,-1.71816 0,-2.578125 -2.476153,0 -4.943117,0 -7.419271,0 z" id="path-main"/>
    </g>
  </defs>
  <g id="acyl-visual">
    <use id="visible1" transform="translate(24,24) scale(1.00) translate(-24,-24)" style="fill:url(#acyl-gradient)" xlink:href="#acyl-drawing"/>
  </g>
</svg>
