<svg xmlns="http://www.w3.org/2000/svg" xmlns:xlink="http://www.w3.org/1999/xlink" width="48" height="48">
  <defs id="acyl-settings">
    <linearGradient x1="0%" y1="0%" x2="0%" y2="100%" id="acyl-gradient">
      <stop offset="0%" style="stop-color:#8FA1B3;stop-opacity:1.000000"/>
    </linearGradient>
    <g id="acyl-filter">
  </g>
    <g id="acyl-drawing">
      <path d="m 16.389407,2.000996 c -0.419956,0.0155 -0.81439,0.316851 -0.939738,0.717964 -0.125348,0.401112 0.02732,0.87343 0.36372,1.125295 0.609488,0.461928 1.107973,1.108907 1.395244,1.817658 0.287272,0.708751 0.371876,1.509743 0.256009,2.265673 -0.141004,0.919925 -0.599955,1.867156 -1.139237,2.867292 -0.541101,1.003511 -1.173495,2.091351 -1.472047,3.40491 -0.426195,1.875154 -0.05284,3.885404 1.024033,5.478576 0.301602,0.445701 0.981544,0.576811 1.427245,0.275208 0.445702,-0.301603 0.576812,-0.981544 0.275209,-1.427245 -0.747904,-1.106484 -1.025622,-2.563399 -0.729623,-3.865725 0.211617,-0.931064 0.728654,-1.870306 1.280041,-2.892893 C 18.68347,10.741748 19.292159,9.590168 19.499907,8.234796 19.672634,7.107909 19.531337,5.95045 19.103094,4.893889 18.67485,3.83733 17.963613,2.907214 17.055029,2.218603 16.867543,2.071617 16.627512,1.993145 16.389407,2.000996 z m 6.809819,0 c -0.41787,0.02038 -0.807294,0.323542 -0.929548,0.723648 -0.122254,0.400105 0.03122,0.869154 0.36633,1.119611 0.609488,0.461928 1.095173,1.108907 1.382444,1.817658 0.287272,0.708751 0.384676,1.509743 0.268809,2.265673 -0.141004,0.919925 -0.612756,1.867156 -1.152037,2.867292 -0.541102,1.003511 -1.160695,2.091351 -1.459247,3.40491 -0.426194,1.875154 -0.05284,3.885404 1.024033,5.478576 0.286584,0.475822 0.995296,0.630688 1.454233,0.317777 0.458937,-0.312912 0.573669,-1.029217 0.235421,-1.469814 -0.747904,-1.106484 -1.012822,-2.563399 -0.716823,-3.865725 0.211617,-0.931064 0.715854,-1.870306 1.267241,-2.892893 0.553207,-1.025961 1.161896,-2.177541 1.369644,-3.532913 C 26.482452,7.107909 26.341156,5.95045 25.912913,4.893889 25.484669,3.83733 24.786232,2.907214 23.877648,2.218603 23.686872,2.068805 23.441541,1.990114 23.199226,2.000996 z m 6.822619,0 c -0.419956,0.0155 -0.81439,0.316851 -0.939738,0.717964 -0.125348,0.401112 0.02732,0.87343 0.36372,1.125295 0.609488,0.461928 1.107973,1.108907 1.395244,1.817658 0.287272,0.708751 0.371876,1.509743 0.256009,2.265673 -0.141004,0.919925 -0.599955,1.867156 -1.139237,2.867292 -0.541101,1.003511 -1.173495,2.091351 -1.472047,3.40491 -0.426195,1.875154 -0.05284,3.885404 1.024033,5.478576 0.301602,0.445701 0.981544,0.576811 1.427245,0.275208 0.445702,-0.301603 0.576812,-0.981544 0.275209,-1.427245 -0.747904,-1.106484 -1.025622,-2.563399 -0.729623,-3.865725 0.211617,-0.931064 0.728654,-1.870306 1.280041,-2.892893 0.553207,-1.025961 1.149096,-2.177541 1.356844,-3.532913 C 33.292271,7.107909 33.163775,5.95045 32.735532,4.893889 32.307288,3.83733 31.596051,2.907214 30.687467,2.218603 30.499981,2.071617 30.25995,1.993145 30.021845,2.000996 z m -21.671096,20.327053 0,13.542831 c 0,1.89467 1.523046,3.41771 3.41771,3.41771 l 23.245547,0 c 1.894664,0 3.417709,-1.52304 3.417709,-3.41771 l 0,-1.02403 c 0.162301,0.0141 0.332971,0.0256 0.499216,0.0256 2.897272,0 5.235369,-2.1776 5.235369,-4.86415 0,-2.686561 -2.338097,-4.864161 -5.235369,-4.864161 -0.166245,0 -0.336915,0.01158 -0.499216,0.0256 l 0,-2.841691 z m 30.580182,5.107364 c 1.527653,0 2.764889,1.156337 2.764889,2.572887 0,1.41654 -1.237236,2.56008 -2.764889,2.56008 -0.168457,0 -0.339023,-0.0117 -0.499216,-0.0384 l 0,-5.043366 c 0.160193,-0.02676 0.330759,-0.0512 0.499216,-0.0512 z M 3.717,41.76306 l 0,0.81923 C 3.717,44.47695 5.240045,46 7.13471,46 l 32.513044,0 c 1.894666,0 3.41771,-1.52305 3.41771,-3.41771 l 0,-0.81923 z" id="path-main"/>
    </g>
  </defs>
  <g id="acyl-visual">
    <use id="visible1" transform="translate(24,24) scale(1.00) translate(-24,-24)" style="fill:url(#acyl-gradient)" xlink:href="#acyl-drawing"/>
  </g>
</svg>
