<svg xmlns="http://www.w3.org/2000/svg" xmlns:xlink="http://www.w3.org/1999/xlink" width="48" height="48">
  <defs id="acyl-settings">
    <linearGradient x1="0%" y1="0%" x2="0%" y2="100%" id="acyl-gradient">
      <stop offset="0%" style="stop-color:#8FA1B3;stop-opacity:1.000000"/>
    </linearGradient>
    <g id="acyl-filter">
  </g>
    <g id="acyl-drawing">
      <path d="M 24 2 C 11.84961 2 2 11.849408 2 24 C 2 36.149815 11.84961 46 24 46 C 36.15039 46 46 36.149815 46 24 C 46 11.849408 36.15039 2 24 2 z M 31.28125 8.125 C 31.845453 8.0849875 32.41066 8.1960496 32.9375 8.5 C 34.342406 9.3115053 34.842741 11.09507 34.03125 12.5 C 33.220728 13.904978 31.404955 14.405256 30 13.59375 C 28.596064 12.783216 28.126979 10.966508 28.9375 9.5625 C 29.444683 8.6844189 30.340912 8.1916875 31.28125 8.125 z M 24 11.25 C 25.181199 11.25 26.320815 11.419174 27.40625 11.71875 C 27.597729 12.898998 28.289509 13.980368 29.40625 14.625 C 30.521099 15.267739 31.820807 15.328093 32.9375 14.90625 C 35.10939 17.042112 36.51305 19.951963 36.71875 23.1875 L 32.53125 23.25 C 32.145428 18.867367 28.482062 15.40625 24 15.40625 C 22.708816 15.40625 21.472764 15.707792 20.375 16.21875 L 18.34375 12.5625 C 20.048227 11.718814 21.969402 11.25 24 11.25 z M 16.90625 13.375 L 19.0625 16.96875 C 16.856537 18.521575 15.40625 21.09719 15.40625 24 C 15.40625 26.902955 16.856537 29.479396 19.0625 31.03125 L 16.90625 34.625 C 14.335288 32.907244 12.449735 30.262862 11.65625 27.1875 C 12.583357 26.430988 13.15625 25.290429 13.15625 24 C 13.15625 22.708794 12.583357 21.569012 11.65625 20.8125 C 12.450657 17.738109 14.336259 15.092805 16.90625 13.375 z M 9.03125 21.0625 C 10.653263 21.0625 11.96875 22.376989 11.96875 24 C 11.96875 25.622234 10.653263 26.9375 9.03125 26.9375 C 7.4082664 26.9375 6.09375 25.622234 6.09375 24 C 6.09375 22.376989 7.4082664 21.0625 9.03125 21.0625 z M 32.53125 24.75 L 36.71875 24.8125 C 36.51305 28.048086 35.10939 30.957888 32.9375 33.09375 C 31.820807 32.671907 30.522021 32.73129 29.40625 33.375 C 28.289509 34.020603 27.597729 35.101002 27.40625 36.28125 C 26.320815 36.581796 25.181199 36.75 24 36.75 C 21.969402 36.75 20.048227 36.282157 18.34375 35.4375 L 20.375 31.78125 C 21.472764 32.292257 22.708816 32.59375 24 32.59375 C 28.482062 32.59375 32.146351 29.133555 32.53125 24.75 z M 31.125 34.03125 C 32.260541 33.890546 33.423323 34.446995 34.03125 35.5 C 34.842694 36.90493 34.342406 38.689417 32.9375 39.5 C 31.532594 40.311457 29.74807 39.842478 28.9375 38.4375 C 28.126057 37.033492 28.595093 35.217707 30 34.40625 C 30.350996 34.203604 30.746486 34.078151 31.125 34.03125 z " id="path-main"/>
    </g>
  </defs>
  <g id="acyl-visual">
    <use id="visible1" transform="translate(24,24) scale(1.00) translate(-24,-24)" style="fill:url(#acyl-gradient)" xlink:href="#acyl-drawing"/>
  </g>
</svg>
