<svg xmlns="http://www.w3.org/2000/svg" xmlns:xlink="http://www.w3.org/1999/xlink" width="48" height="48">
  <defs id="acyl-settings">
    <linearGradient x1="0%" y1="0%" x2="0%" y2="100%" id="acyl-gradient">
      <stop offset="0%" style="stop-color:#8FA1B3;stop-opacity:1.000000"/>
    </linearGradient>
    <g id="acyl-filter">
  </g>
    <g id="acyl-drawing">
      <path d="M 24,2 C 11.856004,2 2.0000001,11.856002 2,24 2,36.143997 11.856003,45.999998 24,46 36.143996,46 46.000001,36.143997 46,24 46,11.856003 36.143996,2 24,2 z m -7.706395,9.593023 c 2.642825,-0.115681 22.159883,11.199355 22.159883,12.950582 -10e-7,1.807718 -20.818455,13.822464 -22.383721,12.918604 -1.565266,-0.903857 -1.565265,-24.93335 0,-25.837209 0.04892,-0.02825 0.138585,-0.02825 0.223838,-0.03198 z" id="path-main"/>
    </g>
  </defs>
  <g id="acyl-visual">
    <use id="visible1" transform="translate(24,24) scale(1.00) translate(-24,-24)" style="fill:url(#acyl-gradient)" xlink:href="#acyl-drawing"/>
  </g>
</svg>
