<svg xmlns="http://www.w3.org/2000/svg" xmlns:xlink="http://www.w3.org/1999/xlink" width="48" height="48">
  <defs id="acyl-settings">
    <linearGradient x1="0%" y1="0%" x2="0%" y2="100%" id="acyl-gradient">
      <stop offset="0%" style="stop-color:#8FA1B3;stop-opacity:1.000000"/>
    </linearGradient>
    <g id="acyl-filter">
  </g>
    <g id="acyl-drawing">
      <path id="path-main" d="M 5.7215982,1.9999999 5.3096132,2.068664 4.8976282,2.2059924 4.5543073,2.3433207 4.2109865,2.4806491 3.8676656,2.6866416 3.5243448,2.9750311 3.2496881,3.2496878 2.9750314,3.5243445 2.6866419,3.8676653 2.4806494,4.2109862 2.343321,4.554307 2.2059927,4.8976279 l -0.1373283,0.411985 -0.068664,0.411985 0,0.411985 0,35.7328341 0,0.411985 0.068664,0.411985 0.1373283,0.411985 0.1373283,0.343321 0.1373284,0.411985 0.2059925,0.343321 0.2883895,0.274657 0.2746567,0.34332 0.2746567,0.205993 0.3433208,0.28839 0.3433209,0.205992 0.3433208,0.137328 0.3433209,0.137329 0.411985,0.137328 0.411985,0.06866 0.411985,0 35.7328338,0 0.411985,0 0.411986,-0.06866 0.411985,-0.137328 0.34332,-0.137329 0.411985,-0.137328 0.343321,-0.205992 0.274657,-0.28839 0.343321,-0.205993 0.205992,-0.34332 0.28839,-0.274657 0.205992,-0.343321 0.137329,-0.411985 0.137328,-0.343321 0.137328,-0.411985 0.06866,-0.411985 0,-0.411985 0,-35.7328341 0,-0.411985 -0.06866,-0.411985 L 45.794008,4.8976279 45.65668,4.554307 45.519351,4.2109862 45.313359,3.8676653 45.024969,3.5243445 44.818977,3.2496878 44.475656,2.9750311 44.200999,2.6866416 43.857678,2.4806491 43.445693,2.3433207 43.102373,2.2059924 42.690388,2.068664 l -0.411986,-0.068664 -0.411985,0 -35.7328338,0 -0.411985,0 z m 15.2571788,5.4382023 0.549313,0 1.098627,0 1.098627,0.068664 1.441947,0.068664 1.441948,0.2059925 1.441947,0.3433209 0.686642,0.1373283 0.755306,0.2059925 0.686642,0.2746567 0.686641,0.2059925 1.387017,0.5493134 0.617977,0.3433208 0.686642,0.2746569 0.617977,0.343321 0.617978,0.343321 0.617977,0.34332 0.549314,0.343321 0.549313,0.411985 0.549314,0.343321 0.961298,0.82397 0.892634,0.82397 0.411985,0.411985 0.343321,0.411985 0.343321,0.411985 0.343321,0.480649 0.137328,0.205993 0.06866,0.205992 0.274657,0.411985 0.137328,0.411985 0.205993,0.425718 -0.06866,0.205993 0,0.137328 -0.137329,0.205993 -0.137328,0.205992 -0.137328,0.137329 -0.205993,0.205992 -0.274657,0.137328 -0.274656,0.137329 -0.274657,0.06866 -0.274657,0 -0.343321,0 -0.274656,0 -0.343321,-0.137328 -0.343321,-0.205993 -0.343321,-0.205992 -0.343321,-0.343321 -0.411985,-0.411985 -0.34332,-0.274657 -0.205993,-0.06866 -0.137328,-0.06866 -0.137329,-0.0824 -0.137328,0 -0.274657,0.0824 -0.205992,0.137328 -0.205993,0.205993 -0.205992,0.205992 -0.480649,0.411985 -0.205993,0.137328 -0.274657,0.137329 -0.137328,0 -0.137328,0 -0.274657,0 -0.205992,-0.06866 -0.205993,-0.137329 -0.205993,-0.137328 -0.205992,-0.137328 -0.274657,-0.205993 -0.274656,-0.137328 -0.205993,-0.06866 -0.274657,-0.06866 -0.274656,0 -0.205993,0.06866 -0.205992,0.06866 -0.219726,0.137328 -0.205992,0.137328 -0.137328,0.137329 -0.137329,0.205992 -0.137328,0.205993 -0.137328,0.205992 0,0.274657 -0.06866,0.205992 0,0.274657 -0.549313,-0.411985 -0.343321,-0.274657 -0.343321,-0.205992 -0.205992,-0.06866 -0.06866,0 -0.137329,0 -0.06866,0.06866 -0.137328,0.205992 -0.274657,0.549314 -0.137328,0.343321 -0.137329,0.137328 -0.137328,0.137328 -0.205992,0.06866 -0.205993,0.137329 -0.274657,0.06866 -0.343321,0.06866 -0.82397,0.06866 -0.686641,0.06867 -0.549314,0.137328 -0.549313,0.205992 -0.205993,0.06866 -0.205992,0.137328 -0.205993,0.137328 -0.205992,0.137329 -0.137328,0.205992 -0.205993,0.205993 -0.274657,0.411985 -0.274656,0.06866 -0.274657,0.06866 -0.274657,0 -0.274656,0 -0.343321,-0.343321 -0.343321,-0.411985 -0.205993,-0.411985 -0.137328,-0.411985 -0.137328,-0.411985 -0.06866,-0.411985 -0.06866,-0.480649 0.06866,-0.480649 0.06866,-0.411985 0.06866,-0.274657 0.205992,-0.274657 0.137329,-0.274656 0.274657,-0.205993 0.205992,-0.219725 0.205993,-0.137329 0.411985,-0.343321 0.892634,-0.617977 0.343321,-0.205993 L 23.17603,15.334582 23.725344,14.64794 24,14.235955 24.205993,13.82397 24.411985,13.411985 24.617978,13 l 0.205992,-0.411985 0.137329,-0.343321 0.06866,-0.343321 0,-0.343321 0,-0.274656 -0.06866,-0.343321 -0.06866,-0.205993 -0.137329,-0.274656 -0.137328,-0.137329 -0.06866,-0.137328 L 24.274657,9.9101123 24.137329,9.772784 24,9.6354556 23.656679,9.4294631 22.901374,9.0174781 22.077404,8.6054931 20.70412,8.0561797 20.292135,7.8501872 20.154807,7.781523 l 0,-0.068664 0.06866,-0.068664 0.06866,-0.068664 0.274657,-0.068664 0.411985,-0.068664 z m -1.922597,0.411985 0.274657,0 0.274656,0.068664 0.48065,0.068664 0.411985,0.2059925 0.411985,0.1373284 0.961298,0.4806492 0.892634,0.411985 0.411985,0.2746567 0.411985,0.2746567 0.274657,0.343321 L 24,10.253433 l 0.137329,0.205993 0.137328,0.274656 0.06866,0.274657 0,0.205993 0.06866,0.274656 -0.06866,0.480649 -0.137328,0.48065 L 24.068665,13 l -0.343321,0.617977 -0.343321,0.549314 -0.137329,0.205992 -0.137328,0.205993 -0.205992,0.274657 -0.137329,0.137328 -0.411985,0.411985 -0.411985,0.411985 -0.480649,0.343321 -0.617977,0.411985 -0.137329,0.137328 -0.205992,0.06866 -0.274657,0.28839 -0.205993,0.274657 -0.205992,0.205992 -0.137328,0.274657 -0.137329,0.343321 -0.137328,0.480649 0,0.205992 0,0.205993 0,0.480649 0.137328,0.480649 0.06866,0.274657 0.06866,0.205992 0.274656,0.48065 0.343321,0.480649 0.343321,0.480649 -0.274657,0 -0.274656,-0.06866 -0.343321,-0.06866 -0.274657,0 -0.274657,0.06866 -0.205992,0.06866 -0.137328,0.06866 -0.137329,0.06866 -0.06866,0.137329 -0.06866,0.06866 -0.137328,0.274656 -0.06867,0.343321 -0.205992,0.343321 -0.274657,0.343321 -0.205992,0.205993 -0.343321,0.137328 -0.343321,0.137328 -0.28839,0.205993 -0.549313,0.411985 -0.480649,0.411985 -0.411985,0.480649 -0.755306,1.029963 -0.755306,1.029962 0.06866,-0.205992 -0.549313,0.137328 -0.617978,0.137328 -0.549313,0.06866 -0.617977,0 -0.617978,-0.06866 -0.617978,-0.06866 L 9.6354559,27.501873 9.0861426,27.227216 8.5368292,27.021224 7.9875158,26.677903 7.5068666,26.334582 7.0262174,25.922597 6.6142324,25.510612 6.2709116,25.029963 5.9275907,24.549313 5.5842699,24 5.3096132,23.450687 5.240949,23.17603 5.1036207,22.832709 5.0349565,22.558052 4.9662923,22.283396 4.828964,21.665418 4.8976282,20.635456 5.1036207,19.674157 5.3096132,18.712859 5.5842699,17.751561 5.7902624,17.270911 5.9962549,16.776529 6.2022474,16.29588 6.4082399,15.883895 6.9575533,14.991261 7.5755308,14.098627 8.1935083,13.274657 8.5368292,12.931336 8.9488142,12.519351 9.7041201,11.832709 10.52809,11.146067 11.420724,10.52809 12.382023,9.9787765 13.343321,9.4981273 14.373284,9.0174781 15.47191,8.6054931 16.639201,8.3308364 17.820225,8.0561797 19.05618,7.8501872 z m 16.973783,9.5580528 0.137328,0 0.137329,0 0.137328,0 0.274657,0.137328 0.205992,0.137328 0.205993,0.137329 0.411985,0.411985 0.343321,0.343321 0.274656,0.274656 0.343321,0.205993 0.274657,0.137328 0.274656,0.06866 0.274657,0 0.274657,0 0.205992,-0.06866 0.274657,-0.06866 0.205993,-0.137328 0.205992,-0.137329 0.205993,-0.205992 0.34332,-0.343321 0.343321,-0.343321 0.137329,-0.06866 0.205992,0.06866 0.06866,0.06866 0.06866,0.06866 0.06867,0.137329 0.06866,0.137328 0.137328,0.274657 0.137328,0.411985 0.205993,0.892634 0.205993,1.029963 0.205992,1.098626 0.137328,1.029963 0.06867,0.892634 0,1.167291 0.06866,0.686642 0,0.617977 -0.06866,0.549314 -0.06867,0.411985 -0.06866,0.205992 -0.06866,0.137328 -0.137328,0.06866 -0.137329,0 -0.274656,0 -0.549314,-0.06866 -1.853932,-0.06866 -1.098627,-0.06866 -1.235955,0 -1.167291,0.06866 -0.549313,0 -0.48065,0.06866 0.137329,-0.549313 0.137328,-0.480649 0.137328,-0.549314 0,-0.549313 0,-0.549313 -0.06866,-0.549314 L 35.617978,24 35.411985,23.519351 35.205993,23.038702 35,22.558052 34.725344,22.146067 34.313359,21.802747 34.038702,21.52809 33.764045,21.253433 33.489389,21.047441 33.214732,20.910112 32.52809,20.635456 31.910113,20.429463 31.498128,20.154807 31.086143,19.88015 l -0.357054,-0.274657 -0.343321,-0.274657 0,-0.205992 0,-0.274657 0.06866,-0.205992 0.06866,-0.205993 0.06866,-0.205992 0.137328,-0.137329 0.205993,-0.137328 0.151061,-0.137328 0.205992,-0.06866 0.205993,-0.06866 0.411985,0 0.274656,0.06866 0.205993,0.137328 0.274657,0.137328 0.274656,0.137329 0.411985,0.34332 0.205993,0.06867 0.205992,0.06866 0.274657,0.06866 0.343321,-0.06866 0.205992,-0.06866 0.274657,-0.205993 0.205993,-0.205992 0.205992,-0.205993 0.411985,-0.343321 0.205993,-0.137328 0.137328,-0.06866 z m -7.292135,1.304619 0.274657,0.205992 0.274656,0.137329 0.617978,0.480649 0.343321,0.274657 0.274657,0.274656 0.274656,0.205993 0.425718,0.137328 0.480649,0.205993 0.549314,0.274656 0.549313,0.274657 0.411985,0.274657 0.411985,0.343321 0.343321,0.480649 0.274657,0.411985 0.274656,0.411985 0.205993,0.411985 0.137328,0.549313 0.06866,0.480649 0.06866,0.549314 0,0.549313 -0.06866,0.549313 -0.06866,0.549314 -0.137328,0.549313 -0.137329,0.549314 -0.137328,0.274656 -0.06866,0.274657 -0.343321,0.480649 -0.137328,0.274657 -0.205993,0.205992 -0.411985,0.411985 -0.411985,0.343321 -0.343321,0.205993 -0.343321,0.137328 -0.755305,0.411985 -0.975032,0.357054 -0.961298,0.343321 -1.716604,0.617977 -0.961299,0.274657 -1.098626,0.274657 -1.029963,0.274656 -1.098627,0.137329 -1.029962,0.137328 -0.961299,0 -0.961298,0 -0.480649,0 -0.480649,-0.06866 -0.892635,-0.137329 -0.82397,-0.205992 -0.411985,-0.137328 -0.411985,-0.137329 -0.357053,-0.137328 -0.343321,-0.137329 -0.686642,-0.34332 -0.549313,-0.411985 -0.480649,-0.48065 -0.411985,-0.563046 -0.137329,-0.274656 -0.137328,-0.274657 -0.137329,-0.411985 -0.06866,-0.480649 -0.06866,-0.411985 0,-0.48065 0.755306,-1.029962 0.411985,-0.549313 0.343321,-0.48065 0.411985,-0.480649 0.480649,-0.480649 0.274657,-0.205993 0.274656,-0.137328 0.357054,-0.205992 0.274657,-0.205993 0.343321,-0.137328 0.205992,-0.205993 0.205993,-0.137328 0.137328,-0.205993 0.137328,-0.34332 0.274657,-0.549314 0.205993,-0.205992 0.06866,-0.137329 0.137328,-0.06866 0.274657,-0.06866 0.343321,0 0.411985,0 0.617977,0.06866 0.274657,0.06866 0.343321,-0.06866 0.205992,-0.06866 0.274657,-0.06866 0.480649,-0.205993 0.411985,-0.205992 0.82397,-0.617978 L 24,21.047441 l 0.274657,-0.137329 0.274657,-0.137328 0.617977,-0.137328 0.343321,-0.06866 0.411985,-0.06866 0.549313,-0.06866 0.48065,-0.137328 0.411985,-0.205993 0.343321,-0.205992 0.274656,-0.274657 0.274657,-0.274657 0.480649,-0.617977 z m 10.519351,9.200999 0.82397,0.06866 0.617978,0 0.480649,0.06866 0.137328,0 0.06866,0.06866 0.137329,0.06866 0.06866,0.06866 0.06866,0.137328 0,0.06866 -0.06866,0.205993 -0.06866,0.205992 -0.411985,0.411985 -0.137329,0.274657 -0.137328,0.205992 0.205992,0.755306 0.06866,0.411985 0,0.425718 0,0.549313 -0.06866,0.343321 0,0.274657 -0.137328,0.549313 -0.137328,0.274657 -0.06866,0.274657 -0.274657,0.480649 -0.137328,0.274657 -0.205993,0.205992 -0.137328,0.205993 -0.205993,0.274656 -0.411985,0.411985 -0.411985,0.343321 -0.480649,0.343321 -0.549313,0.274657 -0.549314,0.274656 -0.617977,0.205993 -0.617978,0.137328 -0.617977,0.137329 -0.686642,0 -1.510612,0.06866 -0.549313,-0.06866 -0.549314,-0.06867 -0.549313,-0.137328 -0.549313,-0.137328 -0.494382,-0.205993 -0.411985,-0.205992 -0.48065,-0.274657 -0.411985,-0.274657 -0.34332,-0.274656 -0.343321,-0.343321 -0.274657,-0.343321 -0.205992,-0.343321 -0.205993,-0.343321 -0.137328,-0.411985 -0.137329,-0.411985 0,-0.411985 0,-0.274656 0,-0.205993 0.48065,-0.274657 0.411985,-0.137328 0.961298,-0.343321 1.029963,-0.274657 0.480649,-0.205992 0.425718,-0.137328 0.755305,-0.357054 0.411985,-0.137328 0.274657,-0.205993 0.205993,-0.137328 0.274656,-0.137329 0.411985,-0.274656 0.343321,-0.343321 0.343321,-0.343321 L 35,28.531835 l 0.205993,-0.343321 2.128589,-0.205992 1.922597,-0.06866 z m -12.373283,5.369538 1.304619,2.952559 0.274656,0.06866 0.755306,0.274657 0.411985,0.205993 0.411985,0.274656 0.274657,0.274657 0.137328,0.137328 0.137329,0.137329 0.563046,1.304619 0.617977,1.098627 0.617978,1.235955 -3.652934,1.304619 -1.304619,-3.433209 -2.059925,-1.510611 -1.853933,-3.639201 3.364545,-0.686642 z"/>
    </g>
  </defs>
  <g id="acyl-visual">
    <use id="visible1" transform="translate(24,24) scale(1.00) translate(-24,-24)" style="fill:url(#acyl-gradient)" xlink:href="#acyl-drawing"/>
  </g>
</svg>
