<svg xmlns="http://www.w3.org/2000/svg" xmlns:xlink="http://www.w3.org/1999/xlink" width="48" height="48">
  <defs id="acyl-settings">
    <linearGradient x1="0%" y1="0%" x2="0%" y2="100%" id="acyl-gradient">
      <stop offset="0%" style="stop-color:#8FA1B3;stop-opacity:1.000000"/>
    </linearGradient>
    <g id="acyl-filter">
  </g>
    <g id="acyl-drawing">
      <path d="M 42.875 3.71875 C 37.944932 5.7587784 27.513226 5.1923383 22.4375 11.09375 C 17.361774 16.995163 19.251694 15.057128 10.4375 20.875 C 17.237594 19.174976 18.456185 18.378327 24.375 12.34375 C 30.33534 6.2668359 39.550752 8.4791195 42.875 3.71875 z M 34.8125 9.96875 C 19.503708 24.97449 8.6818412 20.716797 4.71875 23.4375 C 0.75565876 26.158202 1.4437029 29.816216 4.84375 32.28125 C -1.8396731 22.3374 14.179309 24.353893 21.71875 21.65625 C 29.25819 18.958608 31.493486 16.110496 34.8125 9.96875 z M 22.1875 32 C 17.201336 32.23221 22.911279 34.084548 22.25 34.84375 C 21.105949 36.157213 18.632096 36.520848 17.84375 36.6875 C 17.29997 36.802452 15.753006 39.310597 14.59375 39.375 C 13.434492 39.43941 8.9038752 38.162033 5.625 33.5625 L 3.3125 34.15625 C 3.3125 34.15625 12.775318 45.25534 18.96875 45.4375 C 25.162181 45.61966 26.8125 45.625 26.8125 45.625 C 33.370251 45.625 37.191459 30.503166 42.65625 34.875 C 48.121043 39.246833 38.0625 38.6875 38.0625 38.6875 C 38.0625 38.6875 37.2522 39.169131 37.59375 39.875 C 37.935299 40.580869 38.65625 40.28125 38.65625 40.28125 C 38.65625 40.28125 46.204931 40.687325 46 37.75 C 45.795071 34.812674 43.436857 32.10804 40.75 32.0625 C 38.063145 32.01696 33.551175 35.732101 30.5 36.1875 C 30.008593 36.26084 29.326651 36.321451 28.5625 36.34375 C 27.701249 36.36888 25.321358 36.081723 24.34375 34.84375 C 23.625374 33.93405 30.265636 31.995148 23.34375 32 C 22.911132 32.000306 22.519911 31.984519 22.1875 32 z " id="path-main"/>
    </g>
  </defs>
  <g id="acyl-visual">
    <use id="visible1" transform="translate(24,24) scale(1.00) translate(-24,-24)" style="fill:url(#acyl-gradient)" xlink:href="#acyl-drawing"/>
  </g>
</svg>
