<svg xmlns="http://www.w3.org/2000/svg" xmlns:xlink="http://www.w3.org/1999/xlink" width="48" height="48">
  <defs id="acyl-settings">
    <linearGradient x1="0%" y1="0%" x2="0%" y2="100%" id="acyl-gradient">
      <stop offset="0%" style="stop-color:#8FA1B3;stop-opacity:1.000000"/>
    </linearGradient>
    <g id="acyl-filter">
  </g>
    <g id="acyl-drawing">
      <path d="m 5.6508746,3.2125839 c -3.24e-4,0.01021 -3.24e-4,0.02091 0,0.03436 -0.069603,-0.00196 -0.1368406,0.00884 -0.2009757,0.03436 -0.023168,0.00884 -0.045355,0.020027 -0.066069,0.03436 -0.023365,0.018849 -0.046533,0.042901 -0.066953,0.067934 C 5.1161077,3.5315808 5.0419297,3.8281259 5.1494858,4.0532124 L 2.002153,40.817957 c -0.011486,0.129429 0.023168,0.262991 0.099585,0.36821 0.2154264,2.098887 1.9358732,3.731745 4.0179623,3.850473 0.080009,0.0039 0.1541776,0.03436 0.2344717,0.03436 0.035243,-0.0069 0.068033,-0.01718 0.099506,-0.03436 l 0.03436,0 0.9374742,0 0.2010149,0 37.2333349,0 c 0.02248,4.81e-4 0.04427,0 0.06695,0 0.01021,3.24e-4 0.02179,3.24e-4 0.03436,0 0.305144,0.08109 0.636167,-0.201997 0.636167,-0.535424 0,-0.333762 -0.331023,-0.616092 -0.636167,-0.535837 -0.01021,-3.44e-4 -0.02071,-3.44e-4 -0.03436,0 -0.01983,0 -0.04575,5.49e-4 -0.06695,0 -1.182332,-0.03387 -2.10944,-1.002277 -2.10944,-2.142956 0,-1.161068 0.963421,-2.109528 2.176383,-2.109528 l 0.09952,0 0.200877,0 0.133925,0 c 0.03436,0.0029 0.06735,0.0029 0.09953,0 0.02268,-0.0088 0.04536,-0.01983 0.06735,-0.03436 0.119435,-0.03112 0.227757,-0.101391 0.301385,-0.200986 3.14e-4,-0.01021 3.14e-4,-0.0215 0,-0.03436 0.02759,-0.032 0.0482,-0.06322 0.06656,-0.0995 3.14e-4,-0.01021 3.14e-4,-0.0216 0,-0.03436 3.04e-4,-0.01021 3.04e-4,-0.0216 0,-0.03436 3.14e-4,-0.01021 3.14e-4,-0.0215 0,-0.03436 8.74e-4,-0.0216 8.74e-4,-0.04467 0,-0.06754 3.14e-4,-0.01021 3.14e-4,-0.0216 0,-0.03436 l 0,-0.06666 -1.004211,-11.183651 c -0.192592,0.04378 -0.374316,0.07638 -0.569225,0.06685 -1.320017,-0.05468 -2.494868,-1.365078 -2.578216,-2.846105 l -0.06735,0 0,-0.133925 -0.03436,-0.06784 c -0.002,0.02965 -0.0039,0.02189 -0.03436,0 -0.113407,-0.08718 -0.305802,-0.167441 -0.435309,-0.167441 l -8.437769,0 c -2.775716,0 -5.089459,-2.281425 -5.089459,-5.055993 0,-1.484139 0.416431,-2.844946 1.23882,-3.917631 0.822476,-1.072509 2.138007,-1.841502 3.58276,-1.841502 l 8.806135,0 1.037972,0 0.03436,0 c 0.462818,-0.0069 0.904793,0.08453 1.305822,0.234384 L 42.714099,3.7126277 c -0.01158,-0.15995 -0.100655,-0.3121543 -0.234314,-0.4018532 -0.01021,-3.632e-4 -0.0216,-3.632e-4 -0.03436,0 -0.104719,-0.077751 -0.238742,-0.1131322 -0.36824,-0.099565 -0.02346,0.00884 -0.04536,0.020027 -0.06735,0.03436 l -0.03436,0 -36.0949736,0 -0.067542,0 C 5.7601487,3.2269169 5.7027089,3.2130748 5.645593,3.2112095 z M 32.470947,15.065642 c -1.080745,0 -2.033161,0.530958 -2.678567,1.372843 -0.645602,0.841865 -1.004662,1.978784 -1.004662,3.247889 0,2.163954 1.772487,3.917534 3.951049,3.917534 l 8.437856,0 c 0.411808,0 0.835946,0.169551 1.138441,0.401784 0.302513,0.232263 0.430558,0.516174 0.435309,0.669644 l 0,0.03436 0.03436,0.267899 0,0.06656 0.03436,0 c 0.04015,1.035989 0.759765,1.74172 1.540175,1.774588 C 45.161051,26.853393 46,26.179385 46,25.178099 l 0,-0.03436 -0.8706,-7.701064 c -0.05959,-0.708186 -0.493721,-1.291901 -1.004446,-1.707606 -0.510725,-0.415892 -1.124843,-0.686441 -1.774549,-0.669732 l -1.071576,0 -8.806027,0 z m 1.071507,1.607275 1.071428,0 c 0.89479,0 1.607305,0.721685 1.607305,1.607148 0,0.885434 -0.712515,1.607207 -1.607305,1.607207 l -1.071428,0 c -0.894662,0 -1.607158,-0.721773 -1.607158,-1.607207 0,-0.885463 0.712496,-1.607148 1.607158,-1.607148 z m -25.9496195,23.002958 0.03436,0 34.8895805,0.03436 c -0.512884,0.566005 -0.837064,1.285402 -0.837064,2.109538 l -6.227821,0 c -0.296948,0 -0.535798,0.238948 -0.535798,0.535719 0,0.29682 0.23885,0.535709 0.535798,0.535709 l 6.428786,0 c 0.153481,0.398624 0.386657,0.761572 0.669625,1.071468 l -34.9230574,0 -0.066462,0 c -0.044373,-0.0059 -0.089532,-0.0059 -0.1340721,0 -1.2128733,0 -2.1762744,-0.981887 -2.1762744,-2.142896 0,-1.161029 0.9634011,-2.109489 2.1762744,-2.109489 0.055957,-9.42e-4 0.1138194,-0.01158 0.1674012,-0.03436 z m 8.0361405,1.071429 c -0.296977,0 -0.535837,0.238938 -0.535837,0.535748 0,0.296761 0.23886,0.535749 0.535837,0.535749 l 13.728115,0 c 0.296643,0 0.53566,-0.238988 0.53566,-0.535749 0,-0.29681 -0.239017,-0.535748 -0.53566,-0.535748 l -13.728115,0 z m -9.643298,1.071497 c -0.2965844,0 -0.5357781,0.238909 -0.5357781,0.53568 0,0.29682 0.2391937,0.535739 0.5357781,0.535739 l 5.491265,0 c 0.296898,0 0.535786,-0.238919 0.535786,-0.535739 0,-0.296771 -0.238888,-0.53568 -0.535786,-0.53568 l -5.491265,0 z" id="path-main"/>
    </g>
  </defs>
  <g id="acyl-visual">
    <use id="visible1" transform="translate(24,24) scale(1.00) translate(-24,-24)" style="fill:url(#acyl-gradient)" xlink:href="#acyl-drawing"/>
  </g>
</svg>
