<svg xmlns="http://www.w3.org/2000/svg" xmlns:xlink="http://www.w3.org/1999/xlink" width="48" height="48">
  <defs id="acyl-settings">
    <linearGradient x1="0%" y1="0%" x2="0%" y2="100%" id="acyl-gradient">
      <stop offset="0%" style="stop-color:#8FA1B3;stop-opacity:1.000000"/>
    </linearGradient>
    <g id="acyl-filter">
  </g>
    <g id="acyl-drawing">
      <path d="M 8.2536444,5.7676602 C 4.7930585,5.7676602 2,8.2887621 2,11.39266 l 0,16.75 c 0,3.103898 2.7930615,5.59375 6.2536444,5.59375 l 25.5276966,0 c 1.709267,-0.02044 1.19649,2.095142 -0.09621,4.5625 -2.044257,3.195906 -3.384514,4.748351 -0.09621,3.5 5.109829,-3.725037 6.883378,-4.764778 6.189505,-8.0625 C 43.239009,33.73641 46,31.246558 46,28.14266 l 0,-16.75 C 46,8.2887621 43.239009,5.7676602 39.778426,5.7676602 l -31.5247816,0 z M 11.139942,17.392659 a 1.0342255,1.0077822 0 0 1 0.03208,0 1.0323592,1.0059636 0 0 1 0.03207,0 1.030739,1.0043849 0 0 1 0.03208,0 1.0273659,1.001098 0 0 1 0.09621,0 1.0263417,1.0001 0 0 1 0.09621,0 l 25.559768,0 a 1.0263417,1.0001 0 1 1 0,2.000002 l -25.559768,0 a 1.0363374,1.0098402 0 0 1 -0.288628,-2.000002 z m -0.06414,3.218751 a 1.0386908,1.0121333 0 0 1 0.03207,0 1.0363366,1.0098393 0 0 1 0.03207,0 1.030739,1.0043849 0 0 1 0.09621,0 1.0263417,1.0001 0 0 1 0.19242,0 l 25.559766,0 a 1.0263417,1.0001 0 1 1 0,2 l -25.559766,0 a 1.0412871,1.0146633 0 1 1 -0.35276,-2 z m 0.03207,3.28125 a 1.0363366,1.0098393 0 0 1 0.03207,0 1.030739,1.0043849 0 0 1 0.09621,0 1.0263417,1.0001 0 0 1 0.19242,0 l 25.559766,0 a 1.0263417,1.0001 0 1 1 0,2.000001 l -25.559766,0 a 1.0386914,1.0121339 0 1 1 -0.3207,-2.000001 z m 7.151604,4 a 1.030739,1.0043849 0 0 1 0.09621,0 1.0263417,1.0001 0 0 1 0.19242,0 l 13.854227,0 a 1.0263417,1.0001 0 1 1 0,2 l -13.854227,0 a 1.0363366,1.0098393 0 0 1 -0.28863,-2 z" id="path-main"/>
    </g>
  </defs>
  <g id="acyl-visual">
    <use id="visible1" transform="translate(24,24) scale(1.00) translate(-24,-24)" style="fill:url(#acyl-gradient)" xlink:href="#acyl-drawing"/>
  </g>
</svg>
