<svg xmlns="http://www.w3.org/2000/svg" xmlns:xlink="http://www.w3.org/1999/xlink" width="48" height="48">
  <defs id="acyl-settings">
    <linearGradient x1="0%" y1="0%" x2="0%" y2="100%" id="acyl-gradient">
      <stop offset="0%" style="stop-color:#8FA1B3;stop-opacity:1.000000"/>
    </linearGradient>
    <g id="acyl-filter">
  </g>
    <g id="acyl-drawing">
      <path d="M 23.999999,2 C 11.849374,2 2,11.849374 2,24 2,36.15063 11.849374,46 23.999999,46 36.150625,46 46,36.15063 46,24 46,11.849374 36.150625,2 23.999999,2 z m 0,17.706897 c 2.373611,0 4.293104,1.919492 4.293104,4.293103 0,2.37361 -1.919493,4.293103 -4.293104,4.293103 -2.37361,0 -4.293103,-1.919493 -4.293103,-4.293103 0,-2.373611 1.919493,-4.293103 4.293103,-4.293103 z" id="path-main"/>
    </g>
  </defs>
  <g id="acyl-visual">
    <use id="visible1" transform="translate(24,24) scale(1.00) translate(-24,-24)" style="fill:url(#acyl-gradient)" xlink:href="#acyl-drawing"/>
  </g>
</svg>
