<svg xmlns="http://www.w3.org/2000/svg" xmlns:xlink="http://www.w3.org/1999/xlink" width="48" height="48">
  <defs id="acyl-settings">
    <linearGradient x1="0%" y1="0%" x2="0%" y2="100%" id="acyl-gradient">
      <stop offset="0%" style="stop-color:#8FA1B3;stop-opacity:1.000000"/>
    </linearGradient>
    <g id="acyl-filter">
  </g>
    <g id="acyl-drawing">
      <path d="m 24,4.2106857 c -12.728849,0 -22,8.4426313 -22,18.8571433 0,10.414511 9.271151,18.857142 22,18.857142 2.416569,0 16.920806,4.591283 19.109524,4.026966 1.689981,-0.435726 -8.878625,-5.922054 -7.381662,-6.647439 C 42.504127,36.020914 46,29.978494 46,23.067829 46,12.653317 36.728849,4.2106857 24,4.2106857 z m -0.03274,3.1428572 c 8.672254,0 15.747024,6.9831161 15.747024,15.6815471 -10e-7,8.698827 -7.074771,15.747024 -15.747024,15.747024 C 15.294206,38.782112 8.2857143,31.733839 8.2857143,23.03509 8.285713,14.336655 15.294204,7.3535429 23.967262,7.3535429 z m 0.294643,0.9821428 -1.833334,0.1964286 -1.702381,0.5238095 -0.261904,-0.4255952 -0.818453,0.1309524 -0.327381,0.3273809 -0.6875,0.1309524 -0.556547,0.2291667 -0.196429,0.1309523 -0.03274,0.032738 -0.294643,0 -0.229166,0.5238097 -0.327381,-0.622024 -0.130953,0.2946429 0.06548,0.6875001 -0.523809,0.458333 -0.327381,0.785715 0.6875,0 0.16369,-0.360119 0.491072,0.360119 0.523809,0 0,-0.491072 -0.622023,-0.294643 -0.392858,0.261905 0.163691,-0.196428 c 0.269405,-0.19107 0.511328,-0.405367 0.785714,-0.589286 l 0.589286,0.261905 c 0.41626,0.283635 0.89292,0.50251 1.309524,0.785714 L 20.39881,10.954733 19.645833,10.692829 19.383929,10.038067 18.5,9.9071143 18.794643,9.6779476 19.416667,9.5142571 c 0.17488,-0.085287 0.346818,-0.096046 0.523809,-0.1636904 l -0.294643,0.2619047 1.440477,1.0148806 0,0.52381 -0.52381,0.589286 0.752976,1.505952 0.425595,-0.294643 0.6875,-0.982143 c 0.908297,-0.281641 1.696683,-0.622816 2.553572,-1.014881 0.04201,-0.01929 0.08867,-0.01308 0.130952,-0.03274 L 25.89881,8.9904476 24.261905,8.3356857 z m 0.720238,2.6190473 -0.09821,0.360119 0.458333,0.294643 0.785714,-0.458333 -0.392857,-0.425595 -0.523809,0.229166 -0.229167,0 z m 6.154762,-0.09821 -1.080357,0.294643 -0.6875,0.392857 0,0.425595 -1.145834,0.6875 0.294643,1.047619 0.556548,-0.458333 0.425595,0.458333 0.425595,0.294643 0.294643,-0.752976 -0.16369,-0.458333 0.16369,-0.360119 0.6875,-0.589286 0.294643,0 -0.294643,0.654762 0,0.589286 c 0.263521,-0.07192 0.516039,-0.09731 0.785714,-0.130953 l -0.785714,0.52381 0,0.360119 -0.85119,0.6875 -0.851191,-0.229167 0,-0.458333 -0.392857,0.229166 0.09821,0.458334 -0.622024,0 -0.32738,0.589285 -0.458334,0.458334 -0.752976,0.16369 0.458333,0.491072 0.130953,0.458333 -0.589286,0 -0.720238,0.360119 0,1.145833 0.327381,0 0.327381,0.425596 0.6875,-0.425596 0.294643,-0.6875 0.523809,-0.294642 0.09821,-0.294643 0.916667,-0.163691 0.458333,0.458334 0.458334,0.294642 -0.294643,0.589286 0.523809,-0.130952 0.163691,-0.589286 -0.589286,-0.622024 0.294643,0 0.556548,0.458334 0.130952,0.654761 0.52381,0.556548 0.09821,-0.85119 0.294643,-0.130953 c 0.28356,0.295234 0.481412,0.64988 0.720238,0.982143 l 0.85119,0.06548 0.52381,0.294643 -0.229167,0.360119 -0.523809,0.458333 -0.720238,0 -0.982143,-0.360119 -0.556548,0.130953 -0.327381,0.392857 L 29.5,18.680924 28.8125,18.484495 27.666667,18.615448 26.684524,18.91009 c -0.547082,0.622041 -1.053614,1.220063 -1.571429,1.866072 l -0.6875,1.440476 0.294643,0.360119 -0.458333,0.818453 0.556547,1.342261 c 0.487671,0.553274 0.953518,1.083243 1.440477,1.636905 l 0.720238,-0.589286 0.294643,0.36012 0.785714,-0.491072 0.294643,0.229167 0.720238,0 0.458333,0.589285 -0.229167,0.818453 0.52381,0.654762 -0.06548,1.113095 0.458333,0.752976 -0.294643,0.6875 c -0.02855,0.479054 -0.09821,0.92861 -0.09821,1.407738 0.23504,0.649101 0.465555,1.277785 0.6875,1.931548 l 0.229167,1.047619 0,0.523809 0.392857,0 0.622024,-0.425595 0.6875,0 1.145833,-1.211309 -0.130952,-0.458334 0.752976,-0.654762 -0.52381,-0.589285 0.622024,-0.52381 0.6875,-0.458333 0.229167,-0.294643 -0.163691,-0.6875 0,-1.866071 0.491072,-1.047619 0.6875,-0.785715 0.6875,-1.669643 0,-0.458333 c -0.335978,0.04243 -0.686288,0.074 -1.014881,0.09821 l 0.6875,-0.6875 0.949404,-0.654762 0.52381,-0.589285 0,-0.622024 c -0.114787,-0.217138 -0.244543,-0.503108 -0.360119,-0.720238 l -0.458333,0.589286 -0.327381,-0.392858 -0.52381,-0.425595 0,-0.818452 0.589286,0.654762 0.6875,-0.06548 c 0.300444,0.273553 0.587673,0.506998 0.85119,0.818452 l 0.425596,-0.458333 c 0,-0.517742 -0.609376,-3.107917 -1.866072,-5.270834 -1.256706,-2.162203 -3.470242,-4.125 -3.470238,-4.125 l -0.16369,0.294643 -0.556548,0.654762 -0.752976,-0.785714 0.752976,0 0.327381,-0.392857 -1.375,-0.229167 -0.720238,-0.294643 z m -16.041667,0.360119 -0.261905,0.6875 c 0,0 -0.469601,0.06857 -0.589285,0.09821 -1.528381,1.412517 -4.618866,4.457862 -5.3363099,10.214286 0.028397,0.133469 0.5238099,0.883929 0.5238099,0.883929 l 1.178571,0.752976 1.21131,0.294643 0.458333,0.654762 0.785714,0.556547 0.458334,-0.03274 0.32738,0.09821 0,0.163691 -0.458333,1.178571 -0.327381,0.458334 0.09821,0.229166 -0.261904,1.014881 1.014881,1.800596 1.014881,0.916666 0.392857,0.589286 -0.03274,1.342262 0.327381,0.752976 -0.327381,1.473214 c 0,0 -0.04266,-0.0472 0,0.09822 0.04303,0.14552 1.820901,1.162829 1.931547,1.080357 0.110258,-0.084 0.196429,-0.196429 0.196429,-0.196429 l -0.09821,-0.294643 0.458333,-0.458333 0.09821,-0.392857 0.752976,-0.294643 0.556548,-1.342262 -0.16369,-0.425595 0.392857,-0.589286 0.85119,-0.16369 0.458333,-0.982143 -0.09821,-1.276786 0.622024,-0.949405 0.09821,-0.982143 c -0.913759,-0.454442 -1.810303,-0.874364 -2.717254,-1.34226 l -0.458333,-0.949405 -0.785714,-0.163691 -0.458334,-1.178571 -1.145833,0.130952 -0.949405,-0.6875 -0.982143,0.851191 0,0.196428 c -0.30321,-0.08776 -0.679424,-0.128151 -0.949404,-0.294643 l -0.196429,-0.654761 0,-0.6875 -0.720238,0.06548 c 0.05574,-0.442474 0.173044,-0.899865 0.229167,-1.342262 l -0.392857,0 -0.425596,0.556547 -0.392857,0.130953 -0.556547,-0.294643 -0.06548,-0.6875 0.130953,-0.752976 0.85119,-0.654762 0.622024,0 0.163691,-0.360119 0.785714,0.196428 0.622024,0.752977 0.130952,-1.244048 1.080357,-0.916667 0.327381,-0.949404 0.818452,-0.294643 0.458334,-0.622024 1.014881,-0.229167 0.491071,-0.720238 -1.505952,0 0.949405,-0.458333 0.622023,0 0.982143,-0.294643 0.09821,-0.392857 -0.327381,-0.294643 -0.392858,-0.163691 0.09821,-0.360119 -0.294643,-0.589285 -0.622024,0.229166 0.130952,-0.458333 -0.818452,-0.458333 -0.622024,1.047619 0.06548,0.392857 -0.622023,0.229167 -0.392858,0.818452 -0.130952,-0.6875 -1.080357,-0.458333 -0.163691,-0.589286 1.375,-0.818453 0.622024,-0.589285 0.06548,-0.6875 -0.360119,-0.196429 -0.458333,-0.03274 z m 11.425595,1.276786 0,0.392857 0.294643,0.294643 0,0.654762 -0.16369,0.85119 0.720238,-0.16369 0.458333,-0.458334 -0.458333,-0.458333 C 27.225171,13.214296 27.0975,12.869621 26.91369,12.493424 l -0.392857,0 z m -0.720238,0.982143 -0.392857,0.130952 0.09821,0.752976 0.556548,-0.229166 -0.261905,-0.654762 z m 7.955357,6.875 0.6875,0.752976 0.720238,1.702381 0.458334,0.458333 -0.163691,0.589286 0.392857,0.523809 c -0.20135,0.0136 -0.414984,0.06548 -0.622023,0.06548 -0.365222,-0.769687 -0.638551,-1.519184 -0.916667,-2.324405 l -0.458333,-0.589286 -0.261905,-0.982143 0.16369,-0.196428 z" id="path-main"/>
    </g>
  </defs>
  <g id="acyl-visual">
    <use id="visible1" transform="translate(24,24) scale(1.00) translate(-24,-24)" style="fill:url(#acyl-gradient)" xlink:href="#acyl-drawing"/>
  </g>
</svg>
