<svg xmlns="http://www.w3.org/2000/svg" xmlns:xlink="http://www.w3.org/1999/xlink" width="48" height="48">
  <defs id="acyl-settings">
    <linearGradient x1="0%" y1="0%" x2="0%" y2="100%" id="acyl-gradient">
      <stop offset="0%" style="stop-color:#8FA1B3;stop-opacity:1.000000"/>
    </linearGradient>
    <g id="acyl-filter">
  </g>
    <g id="acyl-drawing">
      <path d="M 9 2 C 7.3316193 2 6 3.3484075 6 5.03125 L 6 42.96875 C 6 44.651592 7.3316193 46 9 46 L 39 46 C 40.66838 46 42 44.651592 42 42.96875 L 42 19.40625 L 24.75 2 L 9 2 z M 29.5 2 L 42 14.5625 L 42 5.03125 C 42 3.3484075 40.66838 2 39 2 L 29.5 2 z M 19.8125 18.3125 C 22.324655 18.3125 24.514991 19.706494 25.6875 21.75 L 24.3125 21.75 L 23.8125 21.75 L 23.8125 22.25 L 23.8125 27.3125 L 22.28125 24.65625 L 21.875 23.96875 L 21.46875 24.65625 L 17.75 31.09375 L 17.5625 31.4375 C 14.944847 30.509227 13.0625 28.03155 13.0625 25.09375 C 13.0625 21.362848 16.081598 18.3125 19.8125 18.3125 z M 24.8125 22.75 L 34.84375 22.75 L 34.84375 32.78125 L 26.96875 32.78125 L 26 31.09375 L 24.8125 29.03125 L 24.8125 22.75 z M 21.875 25.8125 L 25.1875 31.5625 L 28.5 37.28125 L 21.875 37.3125 L 21.84375 37.28125 L 15.21875 37.28125 L 18.5625 31.5625 L 21.875 25.8125 z " id="path-main"/>
    </g>
  </defs>
  <g id="acyl-visual">
    <use id="visible1" transform="translate(24,24) scale(1.00) translate(-24,-24)" style="fill:url(#acyl-gradient)" xlink:href="#acyl-drawing"/>
  </g>
</svg>
