<svg xmlns="http://www.w3.org/2000/svg" xmlns:xlink="http://www.w3.org/1999/xlink" width="48" height="48">
  <defs id="acyl-settings">
    <linearGradient x1="0%" y1="0%" x2="0%" y2="100%" id="acyl-gradient">
      <stop offset="0%" style="stop-color:#8FA1B3;stop-opacity:1.000000"/>
    </linearGradient>
    <g id="acyl-filter">
  </g>
    <g id="acyl-drawing">
      <path d="m 24,10.104464 c -8.531623,0 -16.2562944,3.472511 -21.8513514,9.067567 C 2.0560167,19.261655 2,19.370166 2,19.499058 c 0,0.128892 0.056017,0.267133 0.1486486,0.356757 l 3.0621622,3.062162 c 0.089624,0.09263 0.2278646,0.148649 0.3567568,0.148649 0.1288921,0 0.2374028,-0.05602 0.327027,-0.148649 C 10.532125,18.280446 16.926649,15.396355 24,15.396355 c 7.073351,0 13.467874,2.884091 18.105405,7.521622 0.08962,0.09263 0.198135,0.148649 0.327027,0.148649 0.128892,0 0.267133,-0.05602 0.356757,-0.148649 l 3.062162,-3.062162 C 45.943981,19.766195 46,19.62795 46,19.499058 46,19.370166 45.94398,19.261655 45.851351,19.172031 40.256294,13.576975 32.531623,10.104464 24,10.104464 z m 0,8.71081 c -6.131215,0 -11.676868,2.490381 -15.6972973,6.510811 -0.092632,0.08962 -0.1486486,0.227865 -0.1486486,0.356757 -10e-8,0.128892 0.056017,0.237403 0.1486486,0.327027 l 3.0621623,3.062162 c 0.08962,0.09263 0.198135,0.148649 0.327027,0.148649 0.128892,0 0.267133,-0.05602 0.356757,-0.148649 3.06318,-3.063179 7.278663,-4.964865 11.951351,-4.964865 4.672688,0 8.88817,1.901686 11.951351,4.964865 0.08962,0.09263 0.227865,0.148649 0.356757,0.148649 0.128892,0 0.237403,-0.05602 0.327027,-0.148649 l 3.062162,-3.062162 c 0.09263,-0.08962 0.148649,-0.198135 0.148649,-0.327027 0,-0.128892 -0.05602,-0.267133 -0.148649,-0.356757 C 35.676869,21.305655 30.131215,18.815274 24,18.815274 z m 0,8.681081 c -3.731145,0 -7.097809,1.538352 -9.543243,3.983784 -0.09263,0.08962 -0.148649,0.198135 -0.148649,0.327027 0,0.128892 0.05602,0.267133 0.148649,0.356757 l 3.062162,3.032432 c 0.183444,0.17364 0.47061,0.17364 0.654054,0 1.48883,-1.488828 3.555009,-2.408108 5.827027,-2.408108 2.272017,0 4.338197,0.919278 5.827027,2.408108 0.183444,0.17364 0.47061,0.17364 0.654054,0 l 3.062162,-3.032432 c 0.09263,-0.08962 0.148649,-0.227865 0.148649,-0.356757 0,-0.128892 -0.05602,-0.237403 -0.148649,-0.327027 C 31.097807,29.034706 27.731145,27.496355 24,27.496355 z m 0,8.710811 c -1.333472,-2e-6 -2.521333,0.559167 -3.389189,1.427027 -0.17364,0.183445 -0.17364,0.47061 0,0.654054 l 3.062162,3.062162 c 0.183444,0.17364 0.47061,0.17364 0.654054,0 l 3.062162,-3.062162 c 0.17364,-0.183444 0.17364,-0.470609 0,-0.654054 C 26.521332,36.766336 25.333472,36.207165 24,36.207166 z" id="path-main"/>
    </g>
  </defs>
  <g id="acyl-visual">
    <use id="visible1" transform="translate(24,24) scale(1.00) translate(-24,-24)" style="fill:url(#acyl-gradient)" xlink:href="#acyl-drawing"/>
  </g>
</svg>
