<svg xmlns="http://www.w3.org/2000/svg" xmlns:xlink="http://www.w3.org/1999/xlink" width="48" height="48">
  <defs id="acyl-settings">
    <linearGradient x1="0%" y1="0%" x2="0%" y2="100%" id="acyl-gradient">
      <stop offset="0%" style="stop-color:#8FA1B3;stop-opacity:1.000000"/>
    </linearGradient>
    <g id="acyl-filter">
  </g>
    <g id="acyl-drawing">
      <path id="path-main" d="M 16.25 8.875 C 11.681578 8.875 8.40625 11.624501 8.40625 16.09375 L 8.40625 20 L 7.125 20 C 5.8197372 20 5.15625 20.659291 5.15625 21.96875 L 5.15625 33.09375 C 5.15625 33.735598 5.8197372 35.0625 7.125 35.0625 L 10.625 35.0625 C 11.052806 36.13121 12.144423 36.822797 13.34375 36.6875 C 14.328025 36.576463 15.116278 35.917869 15.46875 35.0625 L 26.28125 35.0625 C 27.335891 35.0563 28 33.735597 28 33.09375 L 28 21.96875 C 28 20.659291 27.336513 20 26.03125 20 L 24.71875 20 L 24.71875 16.09375 C 24.71875 11.510631 21.474674 8.875 16.90625 8.875 L 16.25 8.875 z M 16.25 12.15625 L 16.90625 12.15625 C 21.474674 12.15625 21.46875 16.06554 21.46875 17.375 L 21.46875 20 L 11.6875 20 L 11.6875 17.375 C 11.6875 16.06554 11.681578 12.15625 16.25 12.15625 z M 22.09375 40.53125 C 21.112247 40.641974 20.420526 41.518497 20.53125 42.5 C 20.641974 43.481503 21.518497 44.173224 22.5 44.0625 C 23.481503 43.951776 24.204474 43.075253 24.09375 42.09375 C 23.983026 41.112247 23.075253 40.420526 22.09375 40.53125 z "/>
    </g>
  </defs>
  <g id="acyl-visual">
    <use id="visible1" transform="translate(24,24) scale(1.00) translate(-24,-24)" style="fill:url(#acyl-gradient)" xlink:href="#acyl-drawing"/>
  </g>
</svg>
