<svg xmlns="http://www.w3.org/2000/svg" xmlns:xlink="http://www.w3.org/1999/xlink" width="48" height="48">
  <defs id="acyl-settings">
    <linearGradient x1="0%" y1="0%" x2="0%" y2="100%" id="acyl-gradient">
      <stop offset="0%" style="stop-color:#8FA1B3;stop-opacity:1.000000"/>
    </linearGradient>
    <g id="acyl-filter">
  </g>
    <g id="acyl-drawing">
      <path d="M 12.373626,9.9933975 2,30.795596 l 44,0 -9.89011,-20.8021985 -23.736264,0 z m 11.054945,1.0219775 c 0.187511,-0.006 0.370567,0 0.56044,0 6.075928,0 11,3.085982 11,6.901099 0,1.951213 -0.950245,3.370171 -3.021978,4.626374 l 5.417582,1.021978 0,0.01099 c 1.769755,0.473408 2.945319,0.571788 3.527473,1.593407 0.27411,0.481029 0.328534,1.095245 0.208791,1.582418 -0.125109,0.509006 -0.397303,0.96173 -0.758242,1.373626 -1.421464,1.622125 -4.250105,2.681545 -6.989011,1.516483 L 16.78022,23.136255 c -2.277578,-0.892931 -3.45342,-2.800211 -3.791209,-5.219781 0,-3.695894 4.626731,-6.716084 10.43956,-6.901099 z m 0.725275,4.186814 c -2.005526,0 -3.626373,1.015441 -3.626373,2.274725 0,1.259284 1.620847,2.285714 3.626373,2.285714 2.005527,0 3.637363,-1.02643 3.637363,-2.285714 0,-1.259284 -1.631836,-2.274725 -3.637363,-2.274725 z m -7.901099,5.131868 17.505495,8.252747 0.01099,0 0.01099,0.01099 c 2.226978,0.967798 4.688763,-8.79e-4 5.747253,-1.208791 0.264622,-0.301982 0.435555,-0.616554 0.505494,-0.901099 0.06994,-0.284544 0.04656,-0.533246 -0.08791,-0.76923 -0.268944,-0.471969 -1.071297,-0.928792 -2.692308,-1.043956 l -21,-4.34066 z m 19.692308,5.032967 c 1.238847,0 2.252747,0.639702 2.252747,1.417583 0,0.777881 -1.0139,1.406593 -2.252747,1.406593 -1.238848,0 -2.241758,-0.628712 -2.241758,-1.406593 0,-0.777881 1.00291,-1.417583 2.241758,-1.417583 z m 0,0.56044 c -0.759182,0 -1.362637,0.380447 -1.362637,0.857143 0,0.476696 0.603455,0.857142 1.362637,0.857142 0.759181,0 1.362637,-0.380446 1.362637,-0.857142 0,-0.476696 -0.603456,-0.857143 -1.362637,-0.857143 z M 2,32.015376 l 0,5.153846 44,0 0,-5.153846 -44,0 z" id="path-main"/>
    </g>
  </defs>
  <g id="acyl-visual">
    <use id="visible1" transform="translate(24,24) scale(1.00) translate(-24,-24)" style="fill:url(#acyl-gradient)" xlink:href="#acyl-drawing"/>
  </g>
</svg>
