<svg xmlns="http://www.w3.org/2000/svg" xmlns:xlink="http://www.w3.org/1999/xlink" width="48" height="48">
  <defs id="acyl-settings">
    <linearGradient x1="0%" y1="0%" x2="0%" y2="100%" id="acyl-gradient">
      <stop offset="0%" style="stop-color:#8FA1B3;stop-opacity:1.000000"/>
    </linearGradient>
    <g id="acyl-filter">
  </g>
    <g id="acyl-drawing">
      <path d="m 2.2228798,13.693285 c -0.106243,-0.01552 -0.160961,0.0045 -0.120863,0.07252 -0.362095,0.01313 0.337393,0.504093 0.580144,0.676836 0.151318,0.174218 5.736055,2.694026 8.0495112,4.012669 2.448138,1.363815 5.759573,4.146172 6.019004,4.616986 -2.544374,4.039227 -1.343557,7.575008 -1.643744,7.95282 -0.217538,0.320498 -2.236907,2.366534 -1.595399,2.658998 0.64151,0.292468 1.637097,-0.106604 1.78878,-0.193382 0.322144,-0.184295 0.689865,-0.516196 0.555973,0 -0.272773,1.051624 -1.578849,3.607149 0.120863,3.069934 0.202919,-0.105018 2.95712,-2.88418 3.287488,-2.973243 5.427133,1.28688 11.536355,0.750639 12.666497,0.2659 0.581669,0.03114 2.221871,1.000288 3.166625,1.450362 0.944753,0.45007 3.542694,1.556664 2.779861,-0.483454 -0.230154,-0.644393 -1.95189,-2.292697 -1.667917,-2.393098 0.606843,-0.214458 2.108224,0.578606 2.68317,0.725182 1.71981,0.438456 1.954802,-0.206058 0.870216,-1.547054 -1.084585,-1.340996 -1.242264,-1.148053 -1.571224,-1.764607 -0.263571,-0.494019 -0.07754,-1.072682 0.120863,-1.208635 0.348177,-0.24457 5.544407,-2.80015 6.744186,-3.795115 1.788633,-1.479212 -0.02726,-3.341848 -0.459282,-3.601733 -3.705784,-2.423726 -7.491906,-1.936201 -7.541884,-2.32058 -0.02621,-0.44429 -0.03291,-1.664248 -0.09669,-2.103025 -0.365855,-2.969986 -1.797813,-2.270997 -2.006334,-2.272234 -1.505816,0.211573 -1.049043,2.323453 -0.410936,4.302741 0.05448,0.506654 -0.478862,0.313065 -0.821872,-0.217554 -1.156856,-2.831187 -1.659609,-2.745875 -1.982162,-2.828207 -0.308961,-0.06369 -1.377535,0.498423 -1.353671,1.643744 0.004,0.32902 0.40815,1.887665 0.410935,2.368926 -0.713425,0.568157 -0.704703,1.826304 -1.450362,2.296406 -2.180818,0.414111 -7.422441,-0.977915 -8.073684,-1.039426 -2.265311,-0.385981 -3.28165,1.188311 -3.650078,0.821872 C 14.689324,18.82443 10.187203,16.528557 8.2418838,16.13473 7.4890558,15.982321 5.0011698,15.027407 4.0841788,14.515159 3.3964358,14.130972 2.5416098,13.739828 2.2228808,13.693287 z M 43.94497,16.980773 c -0.705204,0.690389 -0.589189,3.243298 -0.435113,3.214969 0.72208,-0.132762 0.648078,-3.423472 0.435113,-3.214969 z m 2.006335,0.36259 c -0.271735,0.09081 -1.931288,2.225913 -1.619572,3.045761 0.145059,0.381547 1.894351,-2.358622 1.643743,-3.021588 -0.0046,-0.01318 -0.0062,-0.03023 -0.02412,-0.02417 z m -9.669084,4.036842 c 0.02013,-0.02204 0.04607,-0.02737 0.07252,0 0.21836,0.655156 0.480723,1.340253 1.909644,1.498708 0.164354,0.01839 -0.812652,0.529016 -1.474535,0.217554 -0.59748,-0.334371 -0.648494,-1.561984 -0.507627,-1.716262 z m 4.085186,3.263315 c 0.345931,0.07574 -2.55381,1.520634 -2.77986,1.329499 -0.15986,-0.135196 2.051853,-1.474499 2.77986,-1.329499 z m 0.410933,0.89439 c 0.30448,0.02339 -1.73187,1.883219 -1.957985,1.69209 -0.159869,-0.135197 1.344862,-1.73772 1.957985,-1.69209 z" id="path-main"/>
    </g>
  </defs>
  <g id="acyl-visual">
    <use id="visible1" transform="translate(24,24) scale(1.00) translate(-24,-24)" style="fill:url(#acyl-gradient)" xlink:href="#acyl-drawing"/>
  </g>
</svg>
