<svg xmlns="http://www.w3.org/2000/svg" xmlns:xlink="http://www.w3.org/1999/xlink" width="48" height="48">
  <defs id="acyl-settings">
    <linearGradient x1="0%" y1="0%" x2="0%" y2="100%" id="acyl-gradient">
      <stop offset="0%" style="stop-color:#8FA1B3;stop-opacity:1.000000"/>
    </linearGradient>
    <g id="acyl-filter">
  </g>
    <g id="acyl-drawing">
      <path d="M 10.8,2 C 5.9234624,2 2,5.9009517 2,10.712583 2,13.169891 3.0301178,15.365864 4.6872483,16.948344 3.8588697,19.150022 3.3879195,21.521234 3.3879195,24 c 2e-7,2.478768 0.4709498,4.849975 1.2993288,7.051656 C 3.030118,32.634136 2,34.830109 2,37.287417 2,42.099052 5.9234619,46 10.8,46 c 2.537457,10e-7 4.828415,-1.078613 6.437584,-2.768212 2.138681,0.742866 4.432097,1.165563 6.821476,1.165563 2.356152,2e-6 4.621616,-0.413189 6.732886,-1.136424 C 32.399293,44.930409 34.650297,46 37.17047,46 42.047011,45.999999 46,42.099049 46,37.287417 46.000001,34.881603 44.997828,32.71431 43.401342,31.139073 44.247845,28.913702 44.700671,26.510637 44.700671,24 c 4e-6,-2.510634 -0.450837,-4.914106 -1.299329,-7.139073 C 44.997832,15.285687 46,13.118399 46,10.712583 46.000004,5.9009532 42.047008,2 37.17047,2 34.643053,2 32.370547,3.0611653 30.762416,4.7390728 28.654073,4.0197578 26.409127,3.602649 24.05906,3.602649 21.669681,3.6026487 19.376265,4.0253493 17.237584,4.7682119 15.628415,3.0786128 13.337457,2 10.8,2 z m -0.118121,3.6715232 c 1.022775,-7e-7 1.99958,0.3183368 2.805369,0.8450331 C 10.603156,8.2248051 8.1523467,10.590595 6.4,13.422517 5.8819946,12.635542 5.5731544,11.705312 5.5731544,10.712583 c 3e-7,-2.7495027 2.3221314,-5.0410598 5.1087246,-5.0410598 z m 26.488591,0 c 2.902706,-1e-6 5.108725,2.291556 5.108725,5.0410598 2e-6,0.910711 -0.266698,1.76241 -0.708725,2.50596 C 39.798807,10.43158 37.359836,8.1004556 34.483221,6.4291391 35.269595,5.9518936 36.186486,5.6715232 37.17047,5.6715232 z M 23.94094,6.9245033 c 2.481744,0 4.833491,0.5188332 6.969127,1.4569537 l -3.750335,7.954967 c -0.954524,-0.370943 -2.006312,-0.582782 -3.100672,-0.582782 -1.08439,0 -2.121256,0.218245 -3.071141,0.582782 L 16.440268,8.643709 C 18.705666,7.5487898 21.246782,6.9245032 23.94094,6.9245033 z m 15.591946,9.7907287 c 1.063167,2.21288 1.683221,4.681979 1.683221,7.284768 0,2.32578 -0.450493,4.560194 -1.299328,6.58543 L 31.884564,26.913907 C 32.224185,26.012428 32.416107,25.0238 32.416107,24 c 0,-1.037041 -0.213022,-2.031917 -0.561073,-2.943046 l 7.677852,-4.341722 z M 8.1422819,17.268874 16.292617,20.882119 C 15.89869,21.840303 15.672483,22.897127 15.672483,24 c 0,1.066553 0.191447,2.098049 0.561074,3.030464 L 8.4375839,31.313907 C 7.3639804,29.094987 6.7543625,26.612071 6.7543624,24 c 0,-2.381246 0.4974633,-4.667194 1.3879195,-6.731126 z M 24.05906,18.492715 c 3.018813,-3e-6 5.551678,2.414093 5.551678,5.507285 4e-6,3.093196 -2.41676,5.507285 -5.551678,5.507285 -3.018809,1e-6 -5.581208,-2.414093 -5.581208,-5.507285 1e-6,-2.978625 2.446291,-5.507285 5.581208,-5.507285 z m -3.100671,13.170861 c 0.95703,0.370943 2.00631,0.582782 3.100671,0.582782 1.08094,0 2.126195,-0.191312 3.071141,-0.553643 l 4.459061,7.634437 c -2.270831,1.105632 -4.822025,1.748345 -7.530202,1.748345 -2.459899,0 -4.815898,-0.505222 -6.939597,-1.427815 l 3.838926,-7.984106 z M 6.4,34.548344 c 1.7533065,2.841112 4.196053,5.222644 7.087248,6.9351 -0.805789,0.5267 -1.782594,0.845033 -2.805369,0.845033 -2.7865929,3e-6 -5.1087246,-2.291556 -5.1087246,-5.04106 2e-7,-1.024451 0.3176515,-1.958667 0.8268456,-2.739073 z m 35.2,0.203974 c 0.436901,0.748383 0.679195,1.615703 0.679195,2.535099 -1e-6,2.749505 -2.322133,5.04106 -5.108725,5.04106 -0.969522,2e-6 -1.878877,-0.280098 -2.657718,-0.757616 2.876104,-1.678564 5.321831,-4.021698 7.087248,-6.818543 z" id="path-main"/>
    </g>
  </defs>
  <g id="acyl-visual">
    <use id="visible1" transform="translate(24,24) scale(1.00) translate(-24,-24)" style="fill:url(#acyl-gradient)" xlink:href="#acyl-drawing"/>
  </g>
</svg>
