<svg xmlns="http://www.w3.org/2000/svg" xmlns:xlink="http://www.w3.org/1999/xlink" width="48" height="48">
  <defs id="acyl-settings">
    <linearGradient x1="0%" y1="0%" x2="0%" y2="100%" id="acyl-gradient">
      <stop offset="0%" style="stop-color:#8FA1B3;stop-opacity:1.000000"/>
    </linearGradient>
    <g id="acyl-filter">
  </g>
    <g id="acyl-drawing">
      <path d="m 16.002278,11.032601 c -1.434435,-0.04232 -2.678066,0.822941 -3.494756,1.934597 -1.146771,1.347001 -2.28558,2.709413 -3.4323509,4.056414 -1.4700137,0.0855 -3.0070092,-0.211285 -4.4308524,0.249626 -1.7474978,0.613234 -2.8180852,2.486831 -2.6210676,4.30604 0.022472,2.00844 -0.038659,4.048851 0.062406,6.053418 0.2821345,2.063661 2.3133782,3.582331 4.368446,3.369944 l 2.683474,0 c 1.4239839,1.638467 2.8479719,3.270892 4.2436339,4.930103 1.537159,1.596878 4.350543,1.344431 5.678979,-0.374438 0.9173,-1.000983 0.978494,-2.403658 0.936096,-3.681976 -0.0014,-2.288547 -0.0018,-4.576592 0,-6.864701 a 2.9995659,2.9995659 0 0 0 2.995506,1.997004 l 3.994008,0 a 2.9958054,2.9958054 0 0 0 1.997004,-0.748877 2.9958054,2.9958054 0 0 0 1.997003,0.748877 l 3.994008,0 a 2.9958054,2.9958054 0 0 0 1.997004,-0.748877 2.9958054,2.9958054 0 0 0 1.997004,0.748877 l 3.994008,0 a 2.9958054,2.9958054 0 1 0 0,-5.991012 l -3.994008,0 a 2.9958054,2.9958054 0 0 0 -1.997004,0.748877 2.9958054,2.9958054 0 0 0 -1.997004,-0.748877 l -3.994008,0 A 2.9958054,2.9958054 0 0 0 28.982804,21.766497 2.9958054,2.9958054 0 0 0 26.9858,21.01762 l -3.994008,0 a 2.9958054,2.9958054 0 0 0 -0.312032,0 2.9995659,2.9995659 0 0 0 -2.683474,2.05941 c 0.0018,-2.745706 0.006,-5.491441 0,-8.237641 -0.0776,-2.057409 -1.932337,-3.837824 -3.994008,-3.806788 z m -0.06241,4.11882 0,17.473784 c -0.02036,-0.02124 -0.04116,-0.04205 -0.06241,-0.06241 l -4.30604,-4.930103 c -0.39675,-0.44307 -0.965454,-0.693298 -1.560159,-0.686471 l -3.9316017,0 c 0.00393,-1.942643 -0.011543,-3.937348 0,-5.866198 l 3.9316017,0 c 0.604695,-0.0088 1.175051,-0.282586 1.560159,-0.748877 l 4.368454,-5.179725 z" id="path-main"/>
    </g>
  </defs>
  <g id="acyl-visual">
    <use id="visible1" transform="translate(24,24) scale(1.00) translate(-24,-24)" style="fill:url(#acyl-gradient)" xlink:href="#acyl-drawing"/>
  </g>
</svg>
