<svg xmlns="http://www.w3.org/2000/svg" xmlns:xlink="http://www.w3.org/1999/xlink" width="48" height="48">
  <defs id="acyl-settings">
    <linearGradient x1="0%" y1="0%" x2="0%" y2="100%" id="acyl-gradient">
      <stop offset="0%" style="stop-color:#8FA1B3;stop-opacity:1.000000"/>
    </linearGradient>
    <g id="acyl-filter">
  </g>
    <g id="acyl-drawing">
      <path d="m 34.847222,2.4444444 c -1.752046,0.1325598 -3.381314,1.416492 -3.513889,3.3611112 l 0,0.076389 c -0.0015,0.4916854 0.0012,0.9597158 0,1.4513889 l -1.222222,0 c -2.010191,0 -3.666667,1.6564754 -3.666667,3.6666665 l 0,29.333333 C 26.444444,42.343525 28.10092,44 30.111111,44 l 12.222222,0 C 44.343525,44 46,42.343525 46,40.333333 L 46,11 C 46,8.9898087 44.343525,7.3333333 42.333333,7.3333333 l -0.611111,0 -0.611111,0 c 0.01051,-0.3301906 0.01296,-0.592988 0,-0.9930555 -0.02484,-0.7693596 -0.190178,-1.7081729 -0.840278,-2.5208334 -0.704596,-0.9084362 -1.750354,-1.2919475 -2.597222,-1.375 -0.815501,-0.079982 -1.471981,0.014667 -1.986111,0 -0.0198,-5.671e-4 -0.05722,8.434e-4 -0.07639,0 -0.250822,-0.030238 -0.513597,-0.018822 -0.763889,0 z m 0,2.4444445 c 0.180645,-0.042973 0.354276,-0.025422 0.534722,0 l 0.07639,0 c 0.78541,0.03454 1.489244,-0.048718 1.986111,0 0.496868,0.048718 0.697339,0.099171 0.916667,0.3819444 l 0,0.076389 c 0.207313,0.2591747 0.288569,0.54329 0.305556,1.0694445 0.0078,0.2428311 0.01051,0.612238 0,0.9166666 l -4.888889,0 c 0.0011,-0.4654051 -0.0014,-0.9096193 0,-1.375 0.03437,-0.5041789 0.527513,-0.9405195 1.069444,-1.0694444 z M 4.4444444,7.3333333 C 3.0902222,7.3333333 2,8.4235556 2,9.7777778 L 2,41.555556 C 2,42.909778 3.0902222,44 4.4444444,44 l 12.2222226,0 c 1.354222,0 2.444444,-1.090222 2.444444,-2.444444 l 0,-31.7777782 c 0,-1.3542222 -1.090222,-2.4444445 -2.444444,-2.4444445 l -12.2222226,0 z m 0,7.3333337 2.4444445,0 0,2.444444 -2.4444445,0 0,-2.444444 z m 4.8888886,0 2.444445,0 0,2.444444 -2.444445,0 0,-2.444444 z m 4.888889,2.444444 2.444445,0 0,17.111111 -2.444445,0 0,-17.111111 z m -9.7777776,2.444445 2.4444445,0 0,2.444444 -2.4444445,0 0,-2.444444 z m 4.8888886,0 2.444445,0 0,2.444444 -2.444445,0 0,-2.444444 z m -4.8888886,4.888888 2.4444445,0 0,2.444445 -2.4444445,0 0,-2.444445 z m 4.8888886,0 2.444445,0 0,2.444445 -2.444445,0 0,-2.444445 z m -4.8888886,4.888889 2.4444445,0 0,2.444445 -2.4444445,0 0,-2.444445 z m 4.8888886,0 2.444445,0 0,2.444445 -2.444445,0 0,-2.444445 z m -4.8888886,4.888889 2.4444445,0 0,2.444445 -2.4444445,0 0,-2.444445 z m 4.8888886,0 2.444445,0 0,2.444445 -2.444445,0 0,-2.444445 z" id="path-main"/>
    </g>
  </defs>
  <g id="acyl-visual">
    <use id="visible1" transform="translate(24,24) scale(1.00) translate(-24,-24)" style="fill:url(#acyl-gradient)" xlink:href="#acyl-drawing"/>
  </g>
</svg>
