<svg xmlns="http://www.w3.org/2000/svg" xmlns:xlink="http://www.w3.org/1999/xlink" width="48" height="48">
  <defs id="acyl-settings">
    <linearGradient x1="0%" y1="0%" x2="0%" y2="100%" id="acyl-gradient">
      <stop offset="0%" style="stop-color:#8FA1B3;stop-opacity:1.000000"/>
    </linearGradient>
    <g id="acyl-filter">
  </g>
    <g id="acyl-drawing">
      <path id="path-main" d="M 13.09375 4.59375 C 12.693018 4.59375 12.40625 4.8950423 12.40625 5.28125 L 12.40625 41.90625 C 12.40625 42.292462 12.693018 42.59375 13.09375 42.59375 L 23.875 42.59375 L 36.40625 30.78125 L 36.40625 16.78125 L 23.5 4.59375 L 13.09375 4.59375 z M 25.53125 4.59375 L 36.40625 14.84375 L 36.40625 5.28125 C 36.40625 4.8950423 36.056977 4.59375 35.65625 4.59375 L 25.53125 4.59375 z M 22.3125 13.9375 C 24.057511 13.735144 23.14616 15.760121 24.5 16.5625 C 25.126889 16.571762 25.73087 16.633626 26.3125 16.78125 C 27.91741 16.331847 27.44396 13.894944 29.53125 15.125 C 31.52523 16.300021 29.41902 17.054084 29.5625 18.53125 C 30.14727 19.06032 30.64467 19.659874 31.03125 20.34375 C 32.36609 20.744702 33.59371 19.138914 34.15625 21.3125 C 34.70744 23.442235 32.95656 22.688361 31.96875 23.59375 C 31.96996 23.645655 31.96831 23.69782 31.96875 23.75 C 31.97638 24.570402 31.81679 25.355645 31.5625 26.09375 C 32.24493 27.275225 34.22126 27.024962 33.09375 28.9375 C 31.91906 30.93007 31.16641 28.856139 29.6875 29 C 29.17417 29.484852 28.60898 29.889286 27.96875 30.21875 C 27.27887 31.639251 29.23627 32.969788 26.9375 33.5625 C 24.57804 34.17086 25.740229 31.958441 24.28125 31.09375 C 23.638469 31.086235 23.032781 30.965276 22.4375 30.8125 C 20.85904 31.278023 21.35901 33.724419 19.28125 32.5 C 17.28737 31.32498 19.393469 30.570914 19.25 29.09375 C 18.646049 28.552885 18.11343 27.954519 17.71875 27.25 C 16.3956 26.882344 15.18328 28.500903 14.625 26.34375 C 14.07381 24.214014 15.85594 24.96789 16.84375 24.0625 C 16.84138 24.002745 16.844201 23.93512 16.84375 23.875 C 16.836131 23.054597 16.93321 22.269356 17.1875 21.53125 C 16.50507 20.349775 14.59124 20.600041 15.71875 18.6875 C 16.89306 16.695581 17.615809 18.798595 19.09375 18.65625 C 19.616759 18.159987 20.188511 17.709142 20.84375 17.375 C 21.50083 15.963245 19.588941 14.620684 21.875 14.03125 C 22.04502 13.98741 22.17699 13.95322 22.3125 13.9375 z M 24.375 20.9375 C 22.72744 20.951622 21.39155 22.261265 21.40625 23.84375 C 21.42095 25.426236 22.789931 26.70162 24.4375 26.6875 C 26.08506 26.673379 27.3897 25.363736 27.375 23.78125 C 27.36029 22.198765 26.022559 20.92338 24.375 20.9375 z M 36.40625 32.6875 L 25.90625 42.59375 L 35.65625 42.59375 C 36.056987 42.59375 36.40625 42.292462 36.40625 41.90625 L 36.40625 32.6875 z "/>
    </g>
  </defs>
  <g id="acyl-visual">
    <use id="visible1" transform="translate(24,24) scale(1.00) translate(-24,-24)" style="fill:url(#acyl-gradient)" xlink:href="#acyl-drawing"/>
  </g>
</svg>
