<svg xmlns="http://www.w3.org/2000/svg" xmlns:xlink="http://www.w3.org/1999/xlink" width="48" height="48">
  <defs id="acyl-settings">
    <linearGradient x1="0%" y1="0%" x2="0%" y2="100%" id="acyl-gradient">
      <stop offset="0%" style="stop-color:#8FA1B3;stop-opacity:1.000000"/>
    </linearGradient>
    <g id="acyl-filter">
  </g>
    <g id="acyl-drawing">
      <path d="m 4.2350273,38.5933 c 0.477022,0.414284 1.1327003,0.59593 1.7898641,0.419845 l 8.7504466,-2.342291 c 1.051462,-0.281737 1.718048,-1.35712 1.436311,-2.408583 l -0.287262,-1.038563 c -0.0203,0.0067 -0.04557,0.01564 -0.06629,0.0221 -0.03127,-0.164719 -0.04293,-0.31649 -0.08839,-0.486136 -0.190625,-0.711423 -0.541706,-1.287133 -0.928078,-1.856155 1.33091,-2.211395 4.885731,-3.933282 9.148195,-3.933282 4.246261,0 7.783213,1.711925 9.126097,3.911185 -0.382242,0.574816 -0.71819,1.177406 -0.905981,1.878252 -0.0074,0.02758 0.0071,0.06053 0,0.08839 -0.05849,0.117096 -0.09737,0.266315 -0.132582,0.397747 l -0.287263,0.994369 c -0.281738,1.051462 0.340656,2.171038 1.392117,2.452777 l 8.750447,2.342291 c 1.051461,0.281739 2.171037,-0.384848 2.452776,-1.43631 L 44.6506,36.62666 c 0.01865,-0.06962 0.03358,-0.151287 0.0442,-0.220971 0.02683,-0.08118 0.0434,-0.15766 0.06629,-0.243068 0.403877,-1.507294 0.224402,-3.072103 -0.375651,-4.397321 -0.01905,-0.04207 -0.02425,-0.09096 -0.04419,-0.132582 -0.561014,-3.075541 -3.037802,-5.711843 -6.629126,-7.601398 -3.644927,-1.917758 -8.447194,-3.071495 -13.722291,-3.071495 -5.303372,0 -10.132625,1.157401 -13.788583,3.093592 -3.6028478,1.908064 -6.0861333,4.610752 -6.6070292,7.711883 -0.01953,0.04227 -0.025572,0.08989 -0.044194,0.132583 -0.5679822,1.30233 -0.7266639,2.789804 -0.3314563,4.264738 0.041929,0.156481 0.078516,0.298137 0.1325825,0.441942 0.00819,0.02177 0.013699,0.04472 0.022097,0.06629 l 0.243068,0.950175 C 3.7219607,38.015327 3.948814,38.34473 4.2350273,38.5933 z M 5.0305225,37.974582 C 4.818389,37.852107 4.6599957,37.622386 4.5885807,37.355864 l 10.6728933,-2.894719 0,0.04419 c 0.14283,0.533049 -0.218256,1.050414 -0.751301,1.193243 l -8.7504466,2.342291 c -0.2665239,0.07141 -0.5170706,0.05618 -0.7292039,-0.06629 z m 28.0633015,-2.43068 c -0.298817,-0.23734 -0.43858,-0.638777 -0.331457,-1.038563 l 10.650796,2.828428 c -0.142829,0.533045 -0.682293,0.872032 -1.215339,0.729203 l -8.750447,-2.342291 c -0.133261,-0.03571 -0.253947,-0.09766 -0.353553,-0.176777 z" id="path-main"/>
    </g>
  </defs>
  <g id="acyl-visual">
    <use id="visible1" transform="translate(24,24) scale(1.00) translate(-24,-24)" style="fill:url(#acyl-gradient)" xlink:href="#acyl-drawing"/>
  </g>
</svg>
