<svg xmlns="http://www.w3.org/2000/svg" xmlns:xlink="http://www.w3.org/1999/xlink" width="48" height="48">
  <defs id="acyl-settings">
    <linearGradient x1="0%" y1="0%" x2="0%" y2="100%" id="acyl-gradient">
      <stop offset="0%" style="stop-color:#8FA1B3;stop-opacity:1.000000"/>
    </linearGradient>
    <g id="acyl-filter">
  </g>
    <g id="acyl-drawing">
      <path d="M 2,3.872 V 11.19 H 46 V 3.872 Z M 2,18.51 v 7.32 h 44 v -7.32 z m 25.61,10.98 v 3.66 h 3.7 v 7.32 h -3.7 v 3.66 H 38.6 V 40.47 H 34.91 V 33.15 H 38.6 V 29.49 Z M 2,33.15 v 7.32 h 21.91 v -7.32 z" id="path-main"/>
    </g>
  </defs>
  <g id="acyl-visual">
    <use id="visible1" transform="translate(24,24) scale(1.00) translate(-24,-24)" style="fill:url(#acyl-gradient)" xlink:href="#acyl-drawing"/>
  </g>
</svg>
