<svg xmlns="http://www.w3.org/2000/svg" xmlns:xlink="http://www.w3.org/1999/xlink" width="48" height="48">
  <defs id="acyl-settings">
    <linearGradient x1="0%" y1="0%" x2="0%" y2="100%" id="acyl-gradient">
      <stop offset="0%" style="stop-color:#8FA1B3;stop-opacity:1.000000"/>
    </linearGradient>
    <g id="acyl-filter">
  </g>
    <g id="acyl-drawing">
      <path d="m 31.410279,2 -25.0364582,0.028646 0,43.9713542 36.1510422,0 0,-32.65625 L 31.410279,2 z m -1.317708,3.6666667 9.052083,9.4531253 0,0.34375 c -0.713213,-1.292359 -1.851752,-2.230156 -3.78125,-2.549479 l -3.953125,3.953124 c -1.6025,-4.395709 -5.823001,-7.533854 -10.770833,-7.533854 -5.052957,0 -9.334622,3.277642 -10.856771,7.820313 l 0,-11.4583335 20.309896,-0.028646 z m -9.453125,6.6171873 c 4.20075,0 7.645586,3.041394 8.307292,7.046875 l -9.682292,9.682292 c -4.005481,-0.661706 -7.046875,-4.106542 -7.046875,-8.307292 0,-2.045312 0.718495,-3.900331 1.919271,-5.356771 0.171539,-0.208063 0.353775,-0.411068 0.544271,-0.601562 1.523958,-1.523959 3.620833,-2.463542 5.958333,-2.463542 z m 18.505208,5.901042 0,17.731771 c -0.02375,-0.0261 -0.03216,-0.0608 -0.05729,-0.08594 l -7.16146,-7.13281 C 31.284239,28.056251 30.287363,27.85 29.462363,28.125 c 0.249147,-0.304513 0.469763,-0.616981 0.6875,-0.945313 l 8.994791,-8.994791 z M 9.7540291,24.401042 c 1.1008669,3.320826 3.6839089,5.966784 6.9609379,7.161458 l -3.380208,3.380208 -2.606772,6.473959 7.132813,-1.947917 9.166667,-9.166667 c 0.328331,-0.217736 0.640799,-0.438352 0.945312,-0.6875 -0.275,0.825001 -0.06875,1.821875 0.572917,2.463542 l 7.132812,7.161458 c 0.916668,0.916668 2.492188,0.916667 3.408855,0 0.02514,-0.02514 0.03354,-0.05984 0.05729,-0.08594 l 0,3.179687 -29.3906249,0 0,-17.932291 z" id="path-main"/>
    </g>
  </defs>
  <g id="acyl-visual">
    <use id="visible1" transform="translate(24,24) scale(1.00) translate(-24,-24)" style="fill:url(#acyl-gradient)" xlink:href="#acyl-drawing"/>
  </g>
</svg>
