<svg xmlns="http://www.w3.org/2000/svg" xmlns:xlink="http://www.w3.org/1999/xlink" width="48" height="48">
  <defs id="acyl-settings">
    <linearGradient x1="0%" y1="0%" x2="0%" y2="100%" id="acyl-gradient">
      <stop offset="0%" style="stop-color:#8FA1B3;stop-opacity:1.000000"/>
    </linearGradient>
    <g id="acyl-filter">
  </g>
    <g id="acyl-drawing">
      <path id="path-main" d="M 3.8410011,10.494978 21.0529,27.7361 32.157352,16.631649 c 1.024098,0.247096 1.949836,0.515657 2.776112,0.847445 l -5.698336,5.727559 2.191668,2.191668 -1.899446,1.724112 -2.133224,-2.104001 -6.341226,6.341226 -6.341226,-6.341226 -10.8706729,10.870673 18.8483449,0 10.841451,9.438783 L 34.290575,46 l 0,-1.022778 0,-6.224337 c 7.397931,-0.186981 12.25847,-6.23369 11.659674,-12.273341 -0.305925,-3.08566 -2.032342,-6.136839 -5.493781,-8.328339 -0.110895,-0.07021 -0.23629,-0.136105 -0.350667,-0.204555 l 0,-5.61067 -3.886558,3.886558 C 35.327186,15.933221 34.352682,15.66686 33.326241,15.462759 l 4.967781,-4.967781 -34.4530209,0 z M 2,12.33598 2,34.077326 12.899895,23.206653 2,12.33598 z m 35.183577,5.201558 c 1.033608,0.409846 1.963315,0.888071 2.776113,1.402668 3.251188,2.058385 4.806824,4.824573 5.084669,7.627004 0.55569,5.604864 -4.05719,11.37872 -11.22134,11.309007 l -0.467556,0 0,0.467556 0,5.61067 -10.695339,-9.321894 10.695339,-9.731006 c 0,1.532742 0,5.756781 0,5.756781 l 0,0.467556 0.467556,0 c 5.253829,0.217296 8.761395,-3.837895 7.919227,-8.006894 -0.413684,-2.047866 -1.878361,-4.059394 -4.558669,-5.581448 z m 2.922224,3.91578 c 0.364836,0.614165 0.605604,1.251673 0.730556,1.870224 0.279491,1.38357 -0.0052,2.746913 -0.730556,3.886558 l 0,-5.756782 z m -5.815226,6.808782 1.665668,1.665668 c -0.521685,0.110555 -1.081601,0.198029 -1.665668,0.204556 0,-0.265608 0,-1.069555 0,-1.870224 z"/>
    </g>
  </defs>
  <g id="acyl-visual">
    <use id="visible1" transform="translate(24,24) scale(1.00) translate(-24,-24)" style="fill:url(#acyl-gradient)" xlink:href="#acyl-drawing"/>
  </g>
</svg>
