<svg xmlns="http://www.w3.org/2000/svg" xmlns:xlink="http://www.w3.org/1999/xlink" width="48" height="48">
  <defs id="acyl-settings">
    <linearGradient x1="0%" y1="0%" x2="0%" y2="100%" id="acyl-gradient">
      <stop offset="0%" style="stop-color:#8FA1B3;stop-opacity:1.000000"/>
    </linearGradient>
    <g id="acyl-filter">
  </g>
    <g id="acyl-drawing">
      <path d="m 39.612985,2.0001103 c -0.96722,0.014291 -1.618649,0.9217642 -2.280462,1.5635821 L 23.899667,17.104314 c -0.861669,-0.914476 -2.04797,-2.021158 -3.405073,-1.719941 -1.572885,0.702404 0.118105,2.445858 0.749741,3.252251 0.341007,0.388645 0.755674,0.808211 1.124611,1.219594 -5.704294,5.651775 -11.402682,11.310299 -16.9941245,17.074317 -0.9247612,1.391496 0.6963434,3.422465 -0.9684152,4.534388 -1.0130111,1.073171 -2.4494349,2.075999 -2.4054184,3.721326 0.1761166,1.684233 2.391924,0.316967 3.1863984,-0.218902 1.0586312,-0.960952 1.9991913,-2.562706 3.6862256,-2.251558 1.7414291,0.740709 3.2861681,-0.626577 4.3422491,-1.876299 4.997664,-4.961547 9.94845,-9.97395 14.83862,-15.04166 0.802127,0.73765 1.519025,1.344998 2.061787,1.688669 1.941681,1.229449 3.66164,0.358469 3.49879,-0.562889 -0.162847,-0.921359 -1.496406,-2.372322 -1.93683,-2.908263 4.596603,-4.645653 9.23266,-9.250077 13.807726,-13.915881 C 46.646839,8.5661898 45.616543,6.5438089 44.611257,5.2210895 43.486264,3.7363448 41.88742,2.4721283 40.050334,2.0626536 39.898668,2.0246322 39.751159,1.9980687 39.612985,2.0001103 z M 22.900013,20.45038 c 1.539121,1.697538 3.141993,3.402446 4.592162,4.784561 C 22.138862,30.767788 16.773599,36.29122 11.247791,41.652553 9.7933153,42.790003 7.5445084,41.044538 6.3119975,42.715789 5.3293723,43.653909 4.4280213,45.041853 2.9381639,45.092434 2.6687824,43.706922 4.465725,42.825745 5.1873863,41.77764 6.7842237,40.689281 5.321415,38.647747 6.1245623,37.305795 7.5050671,35.720495 9.0862892,34.333999 10.529289,32.802678 14.619346,28.65838 18.75956,24.544155 22.900013,20.45038 z" id="path-main"/>
    </g>
  </defs>
  <g id="acyl-visual">
    <use id="visible1" transform="translate(24,24) scale(1.00) translate(-24,-24)" style="fill:url(#acyl-gradient)" xlink:href="#acyl-drawing"/>
  </g>
</svg>
