<svg xmlns="http://www.w3.org/2000/svg" xmlns:xlink="http://www.w3.org/1999/xlink" width="48" height="48">
  <defs id="acyl-settings">
    <linearGradient x1="0%" y1="0%" x2="0%" y2="100%" id="acyl-gradient">
      <stop offset="0%" style="stop-color:#8FA1B3;stop-opacity:1.000000"/>
    </linearGradient>
    <g id="acyl-filter">
  </g>
    <g id="acyl-drawing">
      <path d="m 27.3,8.6278044 c -8.555864,0 -15.564107,6.9251866 -15.7,15.4499996 l -6.6,0 10.15,11.900001 10.4,-11.900001 -7.7,0 c 0.134128,-5.147149 4.268591,-9.25 9.45,-9.25 5.267811,0 9.449999,4.232188 9.449999,9.5 0,5.267811 -4.182188,9.449999 -9.449999,9.449999 l 0,6.250001 c 8.640159,0 15.7,-7.059841 15.7,-15.7 C 43,15.687645 35.940159,8.6278044 27.3,8.6278044 z" id="path-main"/>
    </g>
  </defs>
  <g id="acyl-visual">
    <use id="visible1" transform="translate(24,24) scale(1.00) translate(-24,-24)" style="fill:url(#acyl-gradient)" xlink:href="#acyl-drawing"/>
  </g>
</svg>
