<svg xmlns="http://www.w3.org/2000/svg" xmlns:xlink="http://www.w3.org/1999/xlink" width="48" height="48">
  <defs id="acyl-settings">
    <linearGradient x1="0%" y1="0%" x2="0%" y2="100%" id="acyl-gradient">
      <stop offset="0%" style="stop-color:#8FA1B3;stop-opacity:1.000000"/>
    </linearGradient>
    <g id="acyl-filter">
  </g>
    <g id="acyl-drawing">
      <path id="path-main" d="M 5.1223958,2 C 3.3918094,2 2,3.3879047 2,5.1160656 L 2,34.083934 C 2,35.812095 3.3918094,37.200001 5.1223958,37.2 l 5.6432292,0 c 0.09165,3.271909 3.559563,8.477656 12.690104,8.8 -4.433643,-2.437077 -5.296331,-4.351332 -5.184896,-8.8 l 24.606771,0 C 44.60819,37.2 46,35.812094 46,34.083934 L 46,5.1160656 C 46,3.3879047 44.60819,2 42.877604,2 L 5.1223958,2 z m 2.8932292,4.3855738 32.111979,0 c 0.890035,0 1.604167,0.9376523 1.604167,2.1062292 l 0,22.187541 c 10e-7,1.168577 -0.714133,2.10623 -1.604167,2.10623 l -32.111979,0 c -0.8900334,1e-6 -1.6041667,-0.937653 -1.6041667,-2.10623 l 0,-22.187541 c 0,-1.1685769 0.7141332,-2.1062292 1.6041667,-2.1062292 z m 15.382812,1.9042623 c -0.678721,2.29e-5 -1.330912,0.049909 -1.947916,0.1731149 -0.596451,0.102714 -1.248643,0.343332 -1.947917,0.692459 -0.699285,0.349171 -1.319161,0.809869 -1.833333,1.384918 -0.493612,0.554552 -0.910779,1.330696 -1.260417,2.337049 -0.329075,1.00639 -0.495059,2.185031 -0.515625,3.52 l 4.182292,0 0,-0.0577 0,-0.288524 c -7e-6,-1.191201 0.336373,-2.162482 0.973958,-2.942951 0.658137,-0.780434 1.468236,-1.182932 2.434896,-1.182951 0.925507,1.9e-5 1.70329,0.332094 2.320312,1.009836 0.617,0.677779 0.916655,1.53266 0.916667,2.539016 -1.3e-5,0.677776 -0.174076,1.283725 -0.544271,1.817705 -0.349651,0.534007 -0.803542,1.003019 -1.317708,1.413771 -0.514187,0.410777 -1.032708,0.854846 -1.546875,1.327213 -0.514185,0.47239 -0.94751,1.094968 -1.317708,1.87541 -0.349648,0.759923 -0.515633,1.656376 -0.515625,2.683278 l 0,0.432787 3.809895,0 c -1.1e-5,-1.006365 0.117502,-1.715995 0.34375,-2.106229 0.226226,-0.390217 0.821867,-0.900802 1.747396,-1.558033 1.439678,-1.006362 2.407683,-1.927757 2.921875,-2.769836 0.51416,-0.842053 0.77342,-1.908701 0.773438,-3.202623 -1.8e-5,-2.094881 -0.737407,-3.821272 -2.177084,-5.135738 -1.41914,-1.314424 -3.237636,-1.9619439 -5.5,-1.9619669 z m -2.234375,18.4078689 0,4.500984 4.640625,0 0,-4.500984 -4.640625,0 z"/>
    </g>
  </defs>
  <g id="acyl-visual">
    <use id="visible1" transform="translate(24,24) scale(1.00) translate(-24,-24)" style="fill:url(#acyl-gradient)" xlink:href="#acyl-drawing"/>
  </g>
</svg>
