<svg xmlns="http://www.w3.org/2000/svg" xmlns:xlink="http://www.w3.org/1999/xlink" width="48" height="48">
  <defs id="acyl-settings">
    <linearGradient x1="0%" y1="0%" x2="0%" y2="100%" id="acyl-gradient">
      <stop offset="0%" style="stop-color:#8FA1B3;stop-opacity:1.000000"/>
    </linearGradient>
    <g id="acyl-filter">
  </g>
    <g id="acyl-drawing">
      <path d="M 23.808444,2 22.717535,3.3986014 C 22.424057,3.7706627 22.008121,3.9536456 21.207045,4.013986 20.40597,4.0743265 19.342556,3.9220957 18.186066,3.7342657 17.029577,3.5464358 15.784696,3.3060639 14.577675,3.2307692 13.370654,3.1554746 12.13038,3.2356221 11.025227,3.9300699 8.7889611,5.3352786 7.1798297,7.496493 6.2420108,9.664336 5.4402183,11.517743 5.0158774,13.36306 5.4867661,14.979021 l -0.8111888,0.783217 -0.951049,0.923077 0.951049,0.979021 L 31.724528,44.993007 32.703549,46 l 0.951049,-1.062937 1.678322,-1.874126 0.83916,-0.951049 -0.895104,-0.895105 -9.034965,-9.062937 c 0.371057,-0.653392 0.618078,-1.42094 0.895104,-2.321678 0.644027,-2.094023 1.231001,-4.858391 1.762238,-7.272727 0.145905,-0.6631 0.637853,-1.110513 1.762238,-1.566434 1.124385,-0.455921 2.748977,-0.771488 4.447552,-1.034965 1.698576,-0.263477 3.461841,-0.491438 5.034965,-0.923077 1.348409,-0.369981 2.580001,-0.992397 3.412588,-2.06993 l 0.02797,0.02797 c 0.028,-0.01875 0.02741,-0.0881 0.05594,-0.111888 0.110324,-0.152488 0.301093,-0.216316 0.391608,-0.391609 l -0.111888,-0.05594 c 0.121606,-0.198986 0.293283,-0.334617 0.307693,-0.55944 0.02913,-0.454558 -0.132617,-0.76183 -0.251749,-0.951049 C 43.738007,14.54464 43.520275,14.411211 43.27697,14.223778 42.790365,13.848912 42.164138,13.46455 41.374878,13.020979 39.796356,12.133837 37.62814,11.018082 35.33292,9.832168 33.037699,8.646254 30.628261,7.3862199 28.675577,6.2237762 26.722893,5.0613326 25.192274,3.86834 24.871381,3.4265734 L 23.808444,2 z m -10.06993,3.9160839 c 0.202935,-0.00747 0.432558,-0.014895 0.671329,0 0.955085,0.059579 2.123712,0.2798224 3.328671,0.4755245 1.204959,0.1957021 2.465059,0.3721619 3.692308,0.2797203 0.77347,-0.058261 1.527644,-0.31568 2.237762,-0.7272728 0.94628,0.878508 2.115744,1.6961661 3.636364,2.6013991 2.048162,1.219282 4.490001,2.500203 6.797202,3.692307 2.307202,1.192105 4.473169,2.298357 5.958042,3.132867 0.378853,0.212918 0.538404,0.333348 0.811189,0.503497 -0.358696,0.198336 -0.814215,0.419391 -1.426573,0.587412 -1.294787,0.355268 -3.015992,0.569374 -4.755245,0.839161 -1.739253,0.269788 -3.49983,0.580324 -5.034965,1.202798 -1.535135,0.622473 -2.96956,1.709331 -3.356643,3.468531 -0.534741,2.43026 -1.126135,5.190561 -1.706294,7.076923 -0.151672,0.493155 -0.288244,0.756165 -0.419581,1.034965 L 8.2559968,14.111888 8.0881647,13.944056 c -8.666e-4,-0.01197 7.648e-4,-0.01573 0,-0.02797 -0.044684,-0.715254 0.075532,-1.912929 0.6153846,-3.160841 0.7496832,-1.732952 2.1049897,-3.5268601 3.7482517,-4.5594408 0.243857,-0.1532331 0.67791,-0.2573126 1.286713,-0.2797203 z" id="path-main"/>
    </g>
  </defs>
  <g id="acyl-visual">
    <use id="visible1" transform="translate(24,24) scale(1.00) translate(-24,-24)" style="fill:url(#acyl-gradient)" xlink:href="#acyl-drawing"/>
  </g>
</svg>
