<svg xmlns="http://www.w3.org/2000/svg" xmlns:xlink="http://www.w3.org/1999/xlink" width="48" height="48">
  <defs id="acyl-settings">
    <linearGradient x1="0%" y1="0%" x2="0%" y2="100%" id="acyl-gradient">
      <stop offset="0%" style="stop-color:#8FA1B3;stop-opacity:1.000000"/>
    </linearGradient>
    <g id="acyl-filter">
  </g>
    <g id="acyl-drawing">
      <path d="M 3.59375 4 C 2.702192 4 2 4.7263438 2 5.625 L 2 42.375 C 2 43.273656 2.702192 44 3.59375 44 L 44.40625 44 C 44.517695 44 44.6138 43.9903 44.71875 43.96875 C 45.453406 43.817988 46 43.161319 46 42.375 L 46 17.5 C 46 16.601344 45.297808 15.875 44.40625 15.875 L 10.03125 15.875 C 9.139693 15.875 8.4375 16.601344 8.4375 17.5 C 8.4375 18.398656 9.139693 19.125 10.03125 19.125 L 42.78125 19.125 L 42.78125 40.75 L 5.21875 40.75 L 5.21875 7.25 L 18.09375 7.25 L 18.09375 12.125 C 18.09375 13.023656 18.795942 13.71875 19.6875 13.71875 L 41.1875 13.71875 C 42.079058 13.71875 42.78125 13.023656 42.78125 12.125 C 42.78125 11.226344 42.079058 10.5 41.1875 10.5 L 21.3125 10.5 L 21.3125 5.625 C 21.3125 4.7263438 20.579057 4 19.6875 4 L 3.59375 4 z M 21.09375 21.84375 C 20.531474 21.9316 20.312224 22.563662 20.4375 23.0625 L 20.90625 28.25 C 19.850817 28.26517 18.802272 28.22645 17.75 28.28125 C 17.100817 28.413456 16.87745 29.276271 17.34375 29.71875 C 19.380689 32.485526 21.426774 35.268354 23.46875 38.03125 C 23.869807 38.513786 24.655918 38.323641 24.90625 37.78125 C 26.858199 35.02343 28.803505 32.29275 30.75 29.53125 C 31.116223 28.955369 30.572281 28.14449 29.90625 28.25 L 27.21875 28.25 C 27.401002 26.370289 27.627054 24.505839 27.78125 22.625 C 27.74516 22.054502 27.134503 21.763788 26.625 21.84375 C 24.777399 21.84377 22.941077 21.843723 21.09375 21.84375 z M 22.1875 23.53125 L 26 23.53125 C 25.817748 25.410961 25.591696 27.275411 25.4375 29.15625 C 25.47359 29.726748 26.084247 30.017462 26.59375 29.9375 L 28.375 29.9375 L 24.0625 36.03125 L 19.59375 29.9375 C 20.427142 29.91967 21.264679 29.97333 22.09375 29.90625 C 22.635748 29.777763 22.805191 29.170715 22.6875 28.6875 L 22.1875 23.53125 z " id="path-main"/>
    </g>
  </defs>
  <g id="acyl-visual">
    <use id="visible1" transform="translate(24,24) scale(1.00) translate(-24,-24)" style="fill:url(#acyl-gradient)" xlink:href="#acyl-drawing"/>
  </g>
</svg>
